<?xml version="1.0"?>
<!DOCTYPE svg PUBLIC "-//W3C//DTD SVG 1.1//EN" "http://www.w3.org/Graphics/SVG/1.1/DTD/svg11.dtd">
<svg width="54.9394323493mm" height="21.0772437716mm" viewBox="0 0 54.9394323493 21.0772437716" xmlns="http://www.w3.org/2000/svg" version="1.1">
<g id="Shape" transform="translate(40.688622,10.398672) scale(1,-1)">
<path id="Shape_nwe0000"  d="M -40.1500000477 -5.87499983311 L -40.1500000477 -4.92499983311 " stroke="#191919" stroke-width="0.35 px" style="stroke-width:0.35;stroke-miterlimit:4;stroke-dasharray:none;fill:none;fill-rule: evenodd "/>
<path id="Shape_nwe0001"  d="M -40.1500000477 5.82500016689 L -40.1500000477 6.77500016689 " stroke="#191919" stroke-width="0.35 px" style="stroke-width:0.35;stroke-miterlimit:4;stroke-dasharray:none;fill:none;fill-rule: evenodd "/>
<path id="Shape_nwe0002"  d="M -40.1500000477 5.82500016689 L -40.1500000477 -4.92499983311 " stroke="#191919" stroke-width="0.35 px" style="stroke-width:0.35;stroke-miterlimit:4;stroke-dasharray:none;fill:none;fill-rule: evenodd "/>
<path id="Shape_nwe0003"  d="M -40.106598395 -5.00744149176 A 0.1 0.1 0 0 1 -40.0791 -5.02068" stroke="#191919" stroke-width="0.35 px" style="stroke-width:0.35;stroke-miterlimit:4;stroke-dasharray:none;fill:none;fill-rule: evenodd "/>
<path id="Shape_nwe0004"  d="M -40.1442479691 -4.9584263093 A 0.1 0.1 0 0 1 -40.129 -4.98631" stroke="#191919" stroke-width="0.35 px" style="stroke-width:0.35;stroke-miterlimit:4;stroke-dasharray:none;fill:none;fill-rule: evenodd "/>
<path id="Shape_nwe0005"  d="M -40.0500000477 -5.02499983311 L -40.1500000477 -4.92499983311 " stroke="#191919" stroke-width="0.35 px" style="stroke-width:0.35;stroke-miterlimit:4;stroke-dasharray:none;fill:none;fill-rule: evenodd "/>
<path id="Shape_nwe0006"  d="M -40.0790640284 5.92068342052 A 0.1 0.1 0 0 1 -40.1066 5.90744" stroke="#191919" stroke-width="0.35 px" style="stroke-width:0.35;stroke-miterlimit:4;stroke-dasharray:none;fill:none;fill-rule: evenodd "/>
<path id="Shape_nwe0007"  d="M -39.1400000477 5.92500016689 L -40.0500000477 5.92500016689 " stroke="#191919" stroke-width="0.35 px" style="stroke-width:0.35;stroke-miterlimit:4;stroke-dasharray:none;fill:none;fill-rule: evenodd "/>
<path id="Shape_nwe0008"  d="M -38.4000000477 6.57500016689 L -38.2500000477 6.56627923666 " stroke="#191919" stroke-width="0.35 px" style="stroke-width:0.35;stroke-miterlimit:4;stroke-dasharray:none;fill:none;fill-rule: evenodd "/>
<path id="Shape_nwe0009"  d="M -38.2500000477 7.08941327812 A 0.556944 0.556944 0 0 1 -37.99 7.025" stroke="#191919" stroke-width="0.35 px" style="stroke-width:0.35;stroke-miterlimit:4;stroke-dasharray:none;fill:none;fill-rule: evenodd "/>
<path id="Shape_nwe0010"  d="M -37.3400000477 7.02500016689 L -37.9900000477 7.02500016689 " stroke="#191919" stroke-width="0.35 px" style="stroke-width:0.35;stroke-miterlimit:4;stroke-dasharray:none;fill:none;fill-rule: evenodd "/>
<path id="Shape_nwe0011"  d="M -37.2900000477 7.22500016689 L -37.3400000477 7.02500016689 " stroke="#191919" stroke-width="0.35 px" style="stroke-width:0.35;stroke-miterlimit:4;stroke-dasharray:none;fill:none;fill-rule: evenodd "/>
<path id="Shape_nwe0012"  d="M -37.1300000477 7.22500016689 L -37.2900000477 7.22500016689 " stroke="#191919" stroke-width="0.35 px" style="stroke-width:0.35;stroke-miterlimit:4;stroke-dasharray:none;fill:none;fill-rule: evenodd "/>
<path id="Shape_nwe0013"  d="M -36.8900000477 6.97500016689 L -37.1300000477 7.22500016689 " stroke="#191919" stroke-width="0.35 px" style="stroke-width:0.35;stroke-miterlimit:4;stroke-dasharray:none;fill:none;fill-rule: evenodd "/>
<path id="Shape_nwe0014"  d="M -34.2500000477 6.97500016689 L -36.8900000477 6.97500016689 " stroke="#191919" stroke-width="0.35 px" style="stroke-width:0.35;stroke-miterlimit:4;stroke-dasharray:none;fill:none;fill-rule: evenodd "/>
<path id="Shape_nwe0015"  d="M -33.9500000477 6.87500016689 A 0.5 0.5 0 0 1 -34.25 6.975" stroke="#191919" stroke-width="0.35 px" style="stroke-width:0.35;stroke-miterlimit:4;stroke-dasharray:none;fill:none;fill-rule: evenodd "/>
<path id="Shape_nwe0016"  d="M -33.9500000477 6.87500016689 L -33.9500000477 6.07500016689 " stroke="#191919" stroke-width="0.35 px" style="stroke-width:0.35;stroke-miterlimit:4;stroke-dasharray:none;fill:none;fill-rule: evenodd "/>
<path id="Shape_nwe0017"  d="M -33.9500000477 -5.17499983311 L -33.9500000477 -5.97499983311 " stroke="#191919" stroke-width="0.35 px" style="stroke-width:0.35;stroke-miterlimit:4;stroke-dasharray:none;fill:none;fill-rule: evenodd "/>
<path id="Shape_nwe0018"  d="M -34.2500000477 -6.07499983311 A 0.5 0.5 0 0 1 -33.95 -5.975" stroke="#191919" stroke-width="0.35 px" style="stroke-width:0.35;stroke-miterlimit:4;stroke-dasharray:none;fill:none;fill-rule: evenodd "/>
<path id="Shape_nwe0019"  d="M -36.8900000477 -6.07499983311 L -34.2500000477 -6.07499983311 " stroke="#191919" stroke-width="0.35 px" style="stroke-width:0.35;stroke-miterlimit:4;stroke-dasharray:none;fill:none;fill-rule: evenodd "/>
<path id="Shape_nwe0020"  d="M -37.1300000477 -6.32499983311 L -36.8900000477 -6.07499983311 " stroke="#191919" stroke-width="0.35 px" style="stroke-width:0.35;stroke-miterlimit:4;stroke-dasharray:none;fill:none;fill-rule: evenodd "/>
<path id="Shape_nwe0021"  d="M -37.2900000477 -6.32499983311 L -37.1300000477 -6.32499983311 " stroke="#191919" stroke-width="0.35 px" style="stroke-width:0.35;stroke-miterlimit:4;stroke-dasharray:none;fill:none;fill-rule: evenodd "/>
<path id="Shape_nwe0022"  d="M -37.3400000477 -6.12499983311 L -37.2900000477 -6.32499983311 " stroke="#191919" stroke-width="0.35 px" style="stroke-width:0.35;stroke-miterlimit:4;stroke-dasharray:none;fill:none;fill-rule: evenodd "/>
<path id="Shape_nwe0023"  d="M -37.9900000477 -6.12499983311 L -37.3400000477 -6.12499983311 " stroke="#191919" stroke-width="0.35 px" style="stroke-width:0.35;stroke-miterlimit:4;stroke-dasharray:none;fill:none;fill-rule: evenodd "/>
<path id="Shape_nwe0024"  d="M -37.9900000477 -6.1249998331 A 0.556944 0.556944 0 0 1 -38.25 -6.18941" stroke="#191919" stroke-width="0.35 px" style="stroke-width:0.35;stroke-miterlimit:4;stroke-dasharray:none;fill:none;fill-rule: evenodd "/>
<path id="Shape_nwe0025"  d="M -34.9500000477 6.07500016689 L -33.8500000477 6.07500016689 " stroke="#191919" stroke-width="0.35 px" style="stroke-width:0.35;stroke-miterlimit:4;stroke-dasharray:none;fill:none;fill-rule: evenodd "/>
<path id="Shape_nwe0026"  d="M -34.9500000477 6.07500016689 L -38.6950000477 6.07500016689 " stroke="#191919" stroke-width="0.35 px" style="stroke-width:0.35;stroke-miterlimit:4;stroke-dasharray:none;fill:none;fill-rule: evenodd "/>
<path id="Shape_nwe0027"  d="M -33.9500000477 6.87500016689 L -33.7500000477 6.47500016689 " stroke="#191919" stroke-width="0.35 px" style="stroke-width:0.35;stroke-miterlimit:4;stroke-dasharray:none;fill:none;fill-rule: evenodd "/>
<path id="Shape_nwe0028"  d="M -33.7500000477 -5.07499983311 L -33.7500000477 -5.57499983311 " stroke="#191919" stroke-width="0.35 px" style="stroke-width:0.35;stroke-miterlimit:4;stroke-dasharray:none;fill:none;fill-rule: evenodd "/>
<path id="Shape_nwe0029"  d="M -33.7500000477 5.97500016689 L -33.7500000477 -5.07499983311 " stroke="#191919" stroke-width="0.35 px" style="stroke-width:0.35;stroke-miterlimit:4;stroke-dasharray:none;fill:none;fill-rule: evenodd "/>
<path id="Shape_nwe0030"  d="M -33.7500000477 -5.57499983311 L -33.9500000477 -5.97499983311 " stroke="#191919" stroke-width="0.35 px" style="stroke-width:0.35;stroke-miterlimit:4;stroke-dasharray:none;fill:none;fill-rule: evenodd "/>
<path id="Shape_nwe0031"  d="M -33.8500000477 -5.17499983311 L -34.9500000477 -5.17499983311 " stroke="#191919" stroke-width="0.35 px" style="stroke-width:0.35;stroke-miterlimit:4;stroke-dasharray:none;fill:none;fill-rule: evenodd "/>
<path id="Shape_nwe0032"  d="M -39.1400000477 -5.02499983311 L -38.6950000477 -5.17499983311 " stroke="#191919" stroke-width="0.35 px" style="stroke-width:0.35;stroke-miterlimit:4;stroke-dasharray:none;fill:none;fill-rule: evenodd "/>
<path id="Shape_nwe0033"  d="M -40.0500000477 -5.02499983311 L -39.1400000477 -5.02499983311 " stroke="#191919" stroke-width="0.35 px" style="stroke-width:0.35;stroke-miterlimit:4;stroke-dasharray:none;fill:none;fill-rule: evenodd "/>
<path id="Shape_nwe0034"  d="M -39.4200000477 -5.02499983311 A 0.3 0.3 0 0 1 -39.72 -5.325" stroke="#191919" stroke-width="0.35 px" style="stroke-width:0.35;stroke-miterlimit:4;stroke-dasharray:none;fill:none;fill-rule: evenodd "/>
<path id="Shape_nwe0035"  d="M -39.7200000477 -5.37499983311 L -39.7200000477 -5.32499983311 " stroke="#191919" stroke-width="0.35 px" style="stroke-width:0.35;stroke-miterlimit:4;stroke-dasharray:none;fill:none;fill-rule: evenodd "/>
<path id="Shape_nwe0036"  d="M -39.7200000477 -5.37499983311 A 0.3 0.3 0 0 1 -39.42 -5.675" stroke="#191919" stroke-width="0.35 px" style="stroke-width:0.35;stroke-miterlimit:4;stroke-dasharray:none;fill:none;fill-rule: evenodd "/>
<path id="Shape_nwe0037"  d="M -39.5300000477 -5.67499983311 L -38.4000000477 -5.67499983311 " stroke="#191919" stroke-width="0.35 px" style="stroke-width:0.35;stroke-miterlimit:4;stroke-dasharray:none;fill:none;fill-rule: evenodd "/>
<path id="Shape_nwe0038"  d="M -38.4000000477 -5.67499983311 L -38.2500000477 -5.66627890288 " stroke="#191919" stroke-width="0.35 px" style="stroke-width:0.35;stroke-miterlimit:4;stroke-dasharray:none;fill:none;fill-rule: evenodd "/>
<path id="Shape_nwe0039"  d="M -38.4000000477 -5.67499983311 L -38.5000000477 -5.77499983311 " stroke="#191919" stroke-width="0.35 px" style="stroke-width:0.35;stroke-miterlimit:4;stroke-dasharray:none;fill:none;fill-rule: evenodd "/>
<path id="Shape_nwe0040"  d="M -38.5000000471 -6.77499983311 L -39.1000000477 -6.77499983311 " stroke="#191919" stroke-width="0.35 px" style="stroke-width:0.35;stroke-miterlimit:4;stroke-dasharray:none;fill:none;fill-rule: evenodd "/>
<path id="Shape_nwe0041"  d="M -39.1000000477 -6.77499983311 L -39.1000000477 -6.67499983311 " stroke="#191919" stroke-width="0.35 px" style="stroke-width:0.35;stroke-miterlimit:4;stroke-dasharray:none;fill:none;fill-rule: evenodd "/>
<path id="Shape_nwe0042"  d="M -39.2000000477 -6.6749998337 L -39.2000000477 -6.47499983311 " stroke="#191919" stroke-width="0.35 px" style="stroke-width:0.35;stroke-miterlimit:4;stroke-dasharray:none;fill:none;fill-rule: evenodd "/>
<path id="Shape_nwe0043"  d="M -39.2000000477 -6.47499983311 A 0.2 0.2 0 0 1 -39.4 -6.275" stroke="#191919" stroke-width="0.35 px" style="stroke-width:0.35;stroke-miterlimit:4;stroke-dasharray:none;fill:none;fill-rule: evenodd "/>
<path id="Shape_nwe0044"  d="M -39.4000000478 -6.27499983311 L -39.5300000477 -6.27499983311 " stroke="#191919" stroke-width="0.35 px" style="stroke-width:0.35;stroke-miterlimit:4;stroke-dasharray:none;fill:none;fill-rule: evenodd "/>
<path id="Shape_nwe0045"  d="M -39.7500000477 -6.27499983311 L -39.5300000477 -6.27499983311 " stroke="#191919" stroke-width="0.35 px" style="stroke-width:0.35;stroke-miterlimit:4;stroke-dasharray:none;fill:none;fill-rule: evenodd "/>
<path id="Shape_nwe0046"  d="M -39.5300000477 -6.27499983311 L -39.4300000477 -6.17499983311 " stroke="#191919" stroke-width="0.35 px" style="stroke-width:0.35;stroke-miterlimit:4;stroke-dasharray:none;fill:none;fill-rule: evenodd "/>
<path id="Shape_nwe0047"  d="M -38.0000000477 4.40000016689 L -38.0000000477 4.00000016689 " stroke="#191919" stroke-width="0.35 px" style="stroke-width:0.35;stroke-miterlimit:4;stroke-dasharray:none;fill:none;fill-rule: evenodd "/>
<path id="Shape_nwe0048"  d="M -38.0000000477 4.00000016689 L -36.3000000477 3.93000016689 " stroke="#191919" stroke-width="0.35 px" style="stroke-width:0.35;stroke-miterlimit:4;stroke-dasharray:none;fill:none;fill-rule: evenodd "/>
<path id="Shape_nwe0049"  d="M -36.3000000477 2.97000016689 L -36.3000000477 3.93000016689 " stroke="#191919" stroke-width="0.35 px" style="stroke-width:0.35;stroke-miterlimit:4;stroke-dasharray:none;fill:none;fill-rule: evenodd "/>
<path id="Shape_nwe0050"  d="M -36.3000000477 2.97000016689 L -38.0000000477 2.90000016689 " stroke="#191919" stroke-width="0.35 px" style="stroke-width:0.35;stroke-miterlimit:4;stroke-dasharray:none;fill:none;fill-rule: evenodd "/>
<path id="Shape_nwe0051"  d="M -38.0000000477 2.90000016689 L -38.0000000477 2.50000016689 " stroke="#191919" stroke-width="0.35 px" style="stroke-width:0.35;stroke-miterlimit:4;stroke-dasharray:none;fill:none;fill-rule: evenodd "/>
<path id="Shape_nwe0052"  d="M -38.0000000477 2.50000016689 L -36.3000000477 2.43000016689 " stroke="#191919" stroke-width="0.35 px" style="stroke-width:0.35;stroke-miterlimit:4;stroke-dasharray:none;fill:none;fill-rule: evenodd "/>
<path id="Shape_nwe0053"  d="M -36.3000000477 1.47000016689 L -36.3000000477 2.43000016689 " stroke="#191919" stroke-width="0.35 px" style="stroke-width:0.35;stroke-miterlimit:4;stroke-dasharray:none;fill:none;fill-rule: evenodd "/>
<path id="Shape_nwe0054"  d="M -36.3000000477 1.47000016689 L -38.0000000477 1.40000016689 " stroke="#191919" stroke-width="0.35 px" style="stroke-width:0.35;stroke-miterlimit:4;stroke-dasharray:none;fill:none;fill-rule: evenodd "/>
<path id="Shape_nwe0055"  d="M -38.0000000477 1.40000016689 L -38.0000000477 1.00000016689 " stroke="#191919" stroke-width="0.35 px" style="stroke-width:0.35;stroke-miterlimit:4;stroke-dasharray:none;fill:none;fill-rule: evenodd "/>
<path id="Shape_nwe0056"  d="M -38.0000000477 1.00000016689 L -36.3000000477 0.930000166893 " stroke="#191919" stroke-width="0.35 px" style="stroke-width:0.35;stroke-miterlimit:4;stroke-dasharray:none;fill:none;fill-rule: evenodd "/>
<path id="Shape_nwe0057"  d="M -36.3000000477 -0.029999833107 L -36.3000000477 0.930000166893 " stroke="#191919" stroke-width="0.35 px" style="stroke-width:0.35;stroke-miterlimit:4;stroke-dasharray:none;fill:none;fill-rule: evenodd "/>
<path id="Shape_nwe0058"  d="M -36.3000000477 -0.029999833107 L -38.0000000477 -0.099999833107 " stroke="#191919" stroke-width="0.35 px" style="stroke-width:0.35;stroke-miterlimit:4;stroke-dasharray:none;fill:none;fill-rule: evenodd "/>
<path id="Shape_nwe0059"  d="M -38.0000000477 -0.099999833107 L -38.0000000477 -0.499999833107 " stroke="#191919" stroke-width="0.35 px" style="stroke-width:0.35;stroke-miterlimit:4;stroke-dasharray:none;fill:none;fill-rule: evenodd "/>
<path id="Shape_nwe0060"  d="M -38.0000000477 -0.499999833107 L -36.3000000477 -0.569999833107 " stroke="#191919" stroke-width="0.35 px" style="stroke-width:0.35;stroke-miterlimit:4;stroke-dasharray:none;fill:none;fill-rule: evenodd "/>
<path id="Shape_nwe0061"  d="M -36.3000000477 -1.52999983311 L -36.3000000477 -0.569999833107 " stroke="#191919" stroke-width="0.35 px" style="stroke-width:0.35;stroke-miterlimit:4;stroke-dasharray:none;fill:none;fill-rule: evenodd "/>
<path id="Shape_nwe0062"  d="M -36.3000000477 -1.52999983311 L -38.0000000477 -1.59999983311 " stroke="#191919" stroke-width="0.35 px" style="stroke-width:0.35;stroke-miterlimit:4;stroke-dasharray:none;fill:none;fill-rule: evenodd "/>
<path id="Shape_nwe0063"  d="M -38.0000000477 -1.59999983311 L -38.0000000477 -1.99999983311 " stroke="#191919" stroke-width="0.35 px" style="stroke-width:0.35;stroke-miterlimit:4;stroke-dasharray:none;fill:none;fill-rule: evenodd "/>
<path id="Shape_nwe0064"  d="M -38.0000000477 -1.99999983311 L -36.3000000477 -2.06999983311 " stroke="#191919" stroke-width="0.35 px" style="stroke-width:0.35;stroke-miterlimit:4;stroke-dasharray:none;fill:none;fill-rule: evenodd "/>
<path id="Shape_nwe0065"  d="M -36.3000000477 -3.02999983311 L -36.3000000477 -2.06999983311 " stroke="#191919" stroke-width="0.35 px" style="stroke-width:0.35;stroke-miterlimit:4;stroke-dasharray:none;fill:none;fill-rule: evenodd "/>
<path id="Shape_nwe0066"  d="M -36.3000000477 -3.02999983311 L -38.0000000477 -3.09999983311 " stroke="#191919" stroke-width="0.35 px" style="stroke-width:0.35;stroke-miterlimit:4;stroke-dasharray:none;fill:none;fill-rule: evenodd "/>
<path id="Shape_nwe0067"  d="M -38.0000000477 -3.09999983311 L -38.0000000477 -3.49999983311 " stroke="#191919" stroke-width="0.35 px" style="stroke-width:0.35;stroke-miterlimit:4;stroke-dasharray:none;fill:none;fill-rule: evenodd "/>
<path id="Shape_nwe0068"  d="M -38.0000000477 -3.49999983311 L -36.3000000477 -3.56999983311 " stroke="#191919" stroke-width="0.35 px" style="stroke-width:0.35;stroke-miterlimit:4;stroke-dasharray:none;fill:none;fill-rule: evenodd "/>
<path id="Shape_nwe0069"  d="M -36.3000000477 -4.52999983311 L -36.3000000477 -3.56999983311 " stroke="#191919" stroke-width="0.35 px" style="stroke-width:0.35;stroke-miterlimit:4;stroke-dasharray:none;fill:none;fill-rule: evenodd "/>
<path id="Shape_nwe0070"  d="M -36.3000000477 -4.52999983311 L -38.0000000477 -4.59999983311 " stroke="#191919" stroke-width="0.35 px" style="stroke-width:0.35;stroke-miterlimit:4;stroke-dasharray:none;fill:none;fill-rule: evenodd "/>
<path id="Shape_nwe0071"  d="M -38.0000000477 -4.59999983311 L -38.0000000477 -4.77499983311 " stroke="#191919" stroke-width="0.35 px" style="stroke-width:0.35;stroke-miterlimit:4;stroke-dasharray:none;fill:none;fill-rule: evenodd "/>
<path id="Shape_nwe0072"  d="M -34.9500000477 -4.77499983311 L -38.0000000477 -4.77499983311 " stroke="#191919" stroke-width="0.35 px" style="stroke-width:0.35;stroke-miterlimit:4;stroke-dasharray:none;fill:none;fill-rule: evenodd "/>
<path id="Shape_nwe0073"  d="M -34.8500000477 -4.87499983311 L -34.9500000477 -4.77499983311 " stroke="#191919" stroke-width="0.35 px" style="stroke-width:0.35;stroke-miterlimit:4;stroke-dasharray:none;fill:none;fill-rule: evenodd "/>
<path id="Shape_nwe0074"  d="M -34.8500000477 -5.07499983311 L -34.8500000477 -4.87499983311 " stroke="#191919" stroke-width="0.35 px" style="stroke-width:0.35;stroke-miterlimit:4;stroke-dasharray:none;fill:none;fill-rule: evenodd "/>
<path id="Shape_nwe0075"  d="M -34.9500000477 -5.17499983311 L -34.8500000477 -5.07499983311 " stroke="#191919" stroke-width="0.35 px" style="stroke-width:0.35;stroke-miterlimit:4;stroke-dasharray:none;fill:none;fill-rule: evenodd "/>
<path id="Shape_nwe0076"  d="M -38.6950000477 6.07500016689 L -39.1400000477 5.92500016689 " stroke="#191919" stroke-width="0.35 px" style="stroke-width:0.35;stroke-miterlimit:4;stroke-dasharray:none;fill:none;fill-rule: evenodd "/>
<path id="Shape_nwe0077"  d="M -34.8500000477 5.97500016689 L -34.9500000477 6.07500016689 " stroke="#191919" stroke-width="0.35 px" style="stroke-width:0.35;stroke-miterlimit:4;stroke-dasharray:none;fill:none;fill-rule: evenodd "/>
<path id="Shape_nwe0078"  d="M -34.8500000477 5.77500016689 L -34.8500000477 5.97500016689 " stroke="#191919" stroke-width="0.35 px" style="stroke-width:0.35;stroke-miterlimit:4;stroke-dasharray:none;fill:none;fill-rule: evenodd "/>
<path id="Shape_nwe0079"  d="M -34.9500000477 5.67500016689 L -34.8500000477 5.77500016689 " stroke="#191919" stroke-width="0.35 px" style="stroke-width:0.35;stroke-miterlimit:4;stroke-dasharray:none;fill:none;fill-rule: evenodd "/>
<path id="Shape_nwe0080"  d="M -34.9500000477 5.67500016689 L -38.0000000477 5.67500016689 " stroke="#191919" stroke-width="0.35 px" style="stroke-width:0.35;stroke-miterlimit:4;stroke-dasharray:none;fill:none;fill-rule: evenodd "/>
<path id="Shape_nwe0081"  d="M -38.0000000477 5.67500016689 L -38.0000000477 5.50000016689 " stroke="#191919" stroke-width="0.35 px" style="stroke-width:0.35;stroke-miterlimit:4;stroke-dasharray:none;fill:none;fill-rule: evenodd "/>
<path id="Shape_nwe0082"  d="M -38.0000000477 5.50000016689 L -36.3000000477 5.43000016689 " stroke="#191919" stroke-width="0.35 px" style="stroke-width:0.35;stroke-miterlimit:4;stroke-dasharray:none;fill:none;fill-rule: evenodd "/>
<path id="Shape_nwe0083"  d="M -36.3000000477 4.47000016689 L -36.3000000477 5.43000016689 " stroke="#191919" stroke-width="0.35 px" style="stroke-width:0.35;stroke-miterlimit:4;stroke-dasharray:none;fill:none;fill-rule: evenodd "/>
<path id="Shape_nwe0084"  d="M -38.86961529 4.62500016689 L -38.3500000477 4.92500016689 " stroke="#191919" stroke-width="0.35 px" style="stroke-width:0.35;stroke-miterlimit:4;stroke-dasharray:none;fill:none;fill-rule: evenodd "/>
<path id="Shape_nwe0085"  d="M -38.3500000477 4.92500016689 L -38.86961529 5.22500016689 " stroke="#191919" stroke-width="0.35 px" style="stroke-width:0.35;stroke-miterlimit:4;stroke-dasharray:none;fill:none;fill-rule: evenodd "/>
<path id="Shape_nwe0086"  d="M -38.86961529 5.22500016689 L -38.86961529 4.62500016689 " stroke="#191919" stroke-width="0.35 px" style="stroke-width:0.35;stroke-miterlimit:4;stroke-dasharray:none;fill:none;fill-rule: evenodd "/>
<path id="Shape_nwe0087"  d="M -39.5300000477 -5.67499983311 L -39.4300000477 -5.77499983311 " stroke="#191919" stroke-width="0.35 px" style="stroke-width:0.35;stroke-miterlimit:4;stroke-dasharray:none;fill:none;fill-rule: evenodd "/>
<path id="Shape_nwe0088"  d="M -39.7500000477 7.17500016689 A 0.4 0.4 0 0 1 -40.15 6.775" stroke="#191919" stroke-width="0.35 px" style="stroke-width:0.35;stroke-miterlimit:4;stroke-dasharray:none;fill:none;fill-rule: evenodd "/>
<path id="Shape_nwe0089"  d="M -39.5300000477 7.17500016689 L -39.7500000477 7.17500016689 " stroke="#191919" stroke-width="0.35 px" style="stroke-width:0.35;stroke-miterlimit:4;stroke-dasharray:none;fill:none;fill-rule: evenodd "/>
<path id="Shape_nwe0090"  d="M -39.4200000477 6.57500016689 A 0.3 0.3 0 0 1 -39.72 6.275" stroke="#191919" stroke-width="0.35 px" style="stroke-width:0.35;stroke-miterlimit:4;stroke-dasharray:none;fill:none;fill-rule: evenodd "/>
<path id="Shape_nwe0091"  d="M -39.7200000477 6.22500016689 L -39.7200000477 6.27500016689 " stroke="#191919" stroke-width="0.35 px" style="stroke-width:0.35;stroke-miterlimit:4;stroke-dasharray:none;fill:none;fill-rule: evenodd "/>
<path id="Shape_nwe0092"  d="M -39.7200000477 6.22500016689 A 0.3 0.3 0 0 1 -39.42 5.925" stroke="#191919" stroke-width="0.35 px" style="stroke-width:0.35;stroke-miterlimit:4;stroke-dasharray:none;fill:none;fill-rule: evenodd "/>
<path id="Shape_nwe0093"  d="M -40.1500000477 -5.87499983311 A 0.4 0.4 0 0 1 -39.75 -6.275" stroke="#191919" stroke-width="0.35 px" style="stroke-width:0.35;stroke-miterlimit:4;stroke-dasharray:none;fill:none;fill-rule: evenodd "/>
<path id="Shape_nwe0094"  d="M -39.4000000478 7.17500016689 L -39.5300000477 7.17500016689 " stroke="#191919" stroke-width="0.35 px" style="stroke-width:0.35;stroke-miterlimit:4;stroke-dasharray:none;fill:none;fill-rule: evenodd "/>
<path id="Shape_nwe0095"  d="M -39.5300000477 7.17500016689 L -39.4300000477 7.07500016689 " stroke="#191919" stroke-width="0.35 px" style="stroke-width:0.35;stroke-miterlimit:4;stroke-dasharray:none;fill:none;fill-rule: evenodd "/>
<path id="Shape_nwe0096"  d="M -39.2000000477 7.57500016694 L -39.2000000477 7.37500016689 " stroke="#191919" stroke-width="0.35 px" style="stroke-width:0.35;stroke-miterlimit:4;stroke-dasharray:none;fill:none;fill-rule: evenodd "/>
<path id="Shape_nwe0097"  d="M -39.1000000477 7.57500016689 L -39.2000000477 7.57500016689 " stroke="#191919" stroke-width="0.35 px" style="stroke-width:0.35;stroke-miterlimit:4;stroke-dasharray:none;fill:none;fill-rule: evenodd "/>
<path id="Shape_nwe0098"  d="M -38.5000000476 7.67500016689 L -39.1000000477 7.67500016689 " stroke="#191919" stroke-width="0.35 px" style="stroke-width:0.35;stroke-miterlimit:4;stroke-dasharray:none;fill:none;fill-rule: evenodd "/>
<path id="Shape_nwe0099"  d="M -38.5000000477 7.57500016689 L -38.5000000477 7.67500016689 " stroke="#191919" stroke-width="0.35 px" style="stroke-width:0.35;stroke-miterlimit:4;stroke-dasharray:none;fill:none;fill-rule: evenodd "/>
<path id="Shape_nwe0100"  d="M -38.4000000477 6.57500016689 L -38.4000000477 7.57500016689 " stroke="#191919" stroke-width="0.35 px" style="stroke-width:0.35;stroke-miterlimit:4;stroke-dasharray:none;fill:none;fill-rule: evenodd "/>
<path id="Shape_nwe0101"  d="M -38.4000000477 6.57500016689 L -38.5000000477 6.67500016689 " stroke="#191919" stroke-width="0.35 px" style="stroke-width:0.35;stroke-miterlimit:4;stroke-dasharray:none;fill:none;fill-rule: evenodd "/>
<path id="Shape_nwe0102"  d="M -39.5300000477 7.17500016689 L -39.5300000477 6.57500016689 " stroke="#191919" stroke-width="0.35 px" style="stroke-width:0.35;stroke-miterlimit:4;stroke-dasharray:none;fill:none;fill-rule: evenodd "/>
<path id="Shape_nwe0103"  d="M -38.2500000477 6.56627923666 L -38.4000000477 6.57500016689 " stroke="#191919" stroke-width="0.35 px" style="stroke-width:0.35;stroke-miterlimit:4;stroke-dasharray:none;fill:none;fill-rule: evenodd "/>
<path id="Shape_nwe0104"  d="M -36.1500000477 -4.53499983311 L -35.6500000477 -4.53499983311 " stroke="#191919" stroke-width="0.35 px" style="stroke-width:0.35;stroke-miterlimit:4;stroke-dasharray:none;fill:none;fill-rule: evenodd "/>
<path id="Shape_nwe0105"  d="M -35.4500000477 4.66500016689 L -35.4500000477 5.23500016689 " stroke="#191919" stroke-width="0.35 px" style="stroke-width:0.35;stroke-miterlimit:4;stroke-dasharray:none;fill:none;fill-rule: evenodd "/>
<path id="Shape_nwe0106"  d="M -35.4500000477 5.23500016689 A 0.2 0.2 0 0 1 -35.65 5.435" stroke="#191919" stroke-width="0.35 px" style="stroke-width:0.35;stroke-miterlimit:4;stroke-dasharray:none;fill:none;fill-rule: evenodd "/>
<path id="Shape_nwe0107"  d="M -36.1500000477 5.43500016689 L -35.6500000477 5.43500016689 " stroke="#191919" stroke-width="0.35 px" style="stroke-width:0.35;stroke-miterlimit:4;stroke-dasharray:none;fill:none;fill-rule: evenodd "/>
<path id="Shape_nwe0108"  d="M -36.1500000477 5.43500016689 L -36.2700000477 5.55500016689 " stroke="#191919" stroke-width="0.35 px" style="stroke-width:0.35;stroke-miterlimit:4;stroke-dasharray:none;fill:none;fill-rule: evenodd "/>
<path id="Shape_nwe0109"  d="M -38.0000000477 5.55500016689 L -36.2700000477 5.55500016689 " stroke="#191919" stroke-width="0.35 px" style="stroke-width:0.35;stroke-miterlimit:4;stroke-dasharray:none;fill:none;fill-rule: evenodd "/>
<path id="Shape_nwe0110"  d="M -33.8500000477 -4.77499983311 L -33.8500000477 5.67500016689 " stroke="#191919" stroke-width="0.35 px" style="stroke-width:0.35;stroke-miterlimit:4;stroke-dasharray:none;fill:none;fill-rule: evenodd "/>
<path id="Shape_nwe0111"  d="M -38.0000000477 -4.65499983311 L -36.2700000477 -4.65499983311 " stroke="#191919" stroke-width="0.35 px" style="stroke-width:0.35;stroke-miterlimit:4;stroke-dasharray:none;fill:none;fill-rule: evenodd "/>
<path id="Shape_nwe0112"  d="M -36.2700000477 -4.65499983311 L -36.1500000477 -4.53499983311 " stroke="#191919" stroke-width="0.35 px" style="stroke-width:0.35;stroke-miterlimit:4;stroke-dasharray:none;fill:none;fill-rule: evenodd "/>
<path id="Shape_nwe0113"  d="M -35.4500000477 -4.33499983311 L -35.4500000477 -3.76499983311 " stroke="#191919" stroke-width="0.35 px" style="stroke-width:0.35;stroke-miterlimit:4;stroke-dasharray:none;fill:none;fill-rule: evenodd "/>
<path id="Shape_nwe0114"  d="M -35.4500000477 -3.76499983311 A 0.2 0.2 0 0 1 -35.65 -3.565" stroke="#191919" stroke-width="0.35 px" style="stroke-width:0.35;stroke-miterlimit:4;stroke-dasharray:none;fill:none;fill-rule: evenodd "/>
<path id="Shape_nwe0115"  d="M -36.1500000477 -3.56499983311 L -35.6500000477 -3.56499983311 " stroke="#191919" stroke-width="0.35 px" style="stroke-width:0.35;stroke-miterlimit:4;stroke-dasharray:none;fill:none;fill-rule: evenodd "/>
<path id="Shape_nwe0116"  d="M -36.1500000477 -3.56499983311 L -36.2700000477 -3.44499983311 " stroke="#191919" stroke-width="0.35 px" style="stroke-width:0.35;stroke-miterlimit:4;stroke-dasharray:none;fill:none;fill-rule: evenodd "/>
<path id="Shape_nwe0117"  d="M -38.0000000477 -3.44499983311 L -36.2700000477 -3.44499983311 " stroke="#191919" stroke-width="0.35 px" style="stroke-width:0.35;stroke-miterlimit:4;stroke-dasharray:none;fill:none;fill-rule: evenodd "/>
<path id="Shape_nwe0118"  d="M -38.0000000477 -3.15499983311 L -36.2700000477 -3.15499983311 " stroke="#191919" stroke-width="0.35 px" style="stroke-width:0.35;stroke-miterlimit:4;stroke-dasharray:none;fill:none;fill-rule: evenodd "/>
<path id="Shape_nwe0119"  d="M -36.2700000477 -3.15499983311 L -36.1500000477 -3.03499983311 " stroke="#191919" stroke-width="0.35 px" style="stroke-width:0.35;stroke-miterlimit:4;stroke-dasharray:none;fill:none;fill-rule: evenodd "/>
<path id="Shape_nwe0120"  d="M -36.1500000477 -3.03499983311 L -35.6500000477 -3.03499983311 " stroke="#191919" stroke-width="0.35 px" style="stroke-width:0.35;stroke-miterlimit:4;stroke-dasharray:none;fill:none;fill-rule: evenodd "/>
<path id="Shape_nwe0121"  d="M -35.6500000477 -3.03499983311 A 0.2 0.2 0 0 1 -35.45 -2.835" stroke="#191919" stroke-width="0.35 px" style="stroke-width:0.35;stroke-miterlimit:4;stroke-dasharray:none;fill:none;fill-rule: evenodd "/>
<path id="Shape_nwe0122"  d="M -35.4500000477 -2.83499983311 L -35.4500000477 -2.26499983311 " stroke="#191919" stroke-width="0.35 px" style="stroke-width:0.35;stroke-miterlimit:4;stroke-dasharray:none;fill:none;fill-rule: evenodd "/>
<path id="Shape_nwe0123"  d="M -35.4500000477 -2.26499983311 A 0.2 0.2 0 0 1 -35.65 -2.065" stroke="#191919" stroke-width="0.35 px" style="stroke-width:0.35;stroke-miterlimit:4;stroke-dasharray:none;fill:none;fill-rule: evenodd "/>
<path id="Shape_nwe0124"  d="M -36.1500000477 -2.06499983311 L -35.6500000477 -2.06499983311 " stroke="#191919" stroke-width="0.35 px" style="stroke-width:0.35;stroke-miterlimit:4;stroke-dasharray:none;fill:none;fill-rule: evenodd "/>
<path id="Shape_nwe0125"  d="M -36.1500000477 -2.06499983311 L -36.2700000477 -1.94499983311 " stroke="#191919" stroke-width="0.35 px" style="stroke-width:0.35;stroke-miterlimit:4;stroke-dasharray:none;fill:none;fill-rule: evenodd "/>
<path id="Shape_nwe0126"  d="M -38.0000000477 -1.94499983311 L -36.2700000477 -1.94499983311 " stroke="#191919" stroke-width="0.35 px" style="stroke-width:0.35;stroke-miterlimit:4;stroke-dasharray:none;fill:none;fill-rule: evenodd "/>
<path id="Shape_nwe0127"  d="M -38.0000000477 -1.65499983311 L -36.2700000477 -1.65499983311 " stroke="#191919" stroke-width="0.35 px" style="stroke-width:0.35;stroke-miterlimit:4;stroke-dasharray:none;fill:none;fill-rule: evenodd "/>
<path id="Shape_nwe0128"  d="M -36.2700000477 -1.65499983311 L -36.1500000477 -1.53499983311 " stroke="#191919" stroke-width="0.35 px" style="stroke-width:0.35;stroke-miterlimit:4;stroke-dasharray:none;fill:none;fill-rule: evenodd "/>
<path id="Shape_nwe0129"  d="M -36.1500000477 -1.53499983311 L -35.6500000477 -1.53499983311 " stroke="#191919" stroke-width="0.35 px" style="stroke-width:0.35;stroke-miterlimit:4;stroke-dasharray:none;fill:none;fill-rule: evenodd "/>
<path id="Shape_nwe0130"  d="M -35.6500000477 -1.53499983311 A 0.2 0.2 0 0 1 -35.45 -1.335" stroke="#191919" stroke-width="0.35 px" style="stroke-width:0.35;stroke-miterlimit:4;stroke-dasharray:none;fill:none;fill-rule: evenodd "/>
<path id="Shape_nwe0131"  d="M -35.4500000477 -1.33499983311 L -35.4500000477 -0.764999833107 " stroke="#191919" stroke-width="0.35 px" style="stroke-width:0.35;stroke-miterlimit:4;stroke-dasharray:none;fill:none;fill-rule: evenodd "/>
<path id="Shape_nwe0132"  d="M -35.4500000477 -0.764999833107 A 0.2 0.2 0 0 1 -35.65 -0.565" stroke="#191919" stroke-width="0.35 px" style="stroke-width:0.35;stroke-miterlimit:4;stroke-dasharray:none;fill:none;fill-rule: evenodd "/>
<path id="Shape_nwe0133"  d="M -36.1500000477 -0.564999833107 L -35.6500000477 -0.564999833107 " stroke="#191919" stroke-width="0.35 px" style="stroke-width:0.35;stroke-miterlimit:4;stroke-dasharray:none;fill:none;fill-rule: evenodd "/>
<path id="Shape_nwe0134"  d="M -36.1500000477 -0.564999833107 L -36.2700000477 -0.444999833107 " stroke="#191919" stroke-width="0.35 px" style="stroke-width:0.35;stroke-miterlimit:4;stroke-dasharray:none;fill:none;fill-rule: evenodd "/>
<path id="Shape_nwe0135"  d="M -38.0000000477 -0.444999833107 L -36.2700000477 -0.444999833107 " stroke="#191919" stroke-width="0.35 px" style="stroke-width:0.35;stroke-miterlimit:4;stroke-dasharray:none;fill:none;fill-rule: evenodd "/>
<path id="Shape_nwe0136"  d="M -38.0000000477 -0.154999833107 L -36.2700000477 -0.154999833107 " stroke="#191919" stroke-width="0.35 px" style="stroke-width:0.35;stroke-miterlimit:4;stroke-dasharray:none;fill:none;fill-rule: evenodd "/>
<path id="Shape_nwe0137"  d="M -36.2700000477 -0.154999833107 L -36.1500000477 -0.034999833107 " stroke="#191919" stroke-width="0.35 px" style="stroke-width:0.35;stroke-miterlimit:4;stroke-dasharray:none;fill:none;fill-rule: evenodd "/>
<path id="Shape_nwe0138"  d="M -36.1500000477 -0.034999833107 L -35.6500000477 -0.034999833107 " stroke="#191919" stroke-width="0.35 px" style="stroke-width:0.35;stroke-miterlimit:4;stroke-dasharray:none;fill:none;fill-rule: evenodd "/>
<path id="Shape_nwe0139"  d="M -35.6500000477 -0.034999833107 A 0.2 0.2 0 0 1 -35.45 0.165" stroke="#191919" stroke-width="0.35 px" style="stroke-width:0.35;stroke-miterlimit:4;stroke-dasharray:none;fill:none;fill-rule: evenodd "/>
<path id="Shape_nwe0140"  d="M -35.4500000477 0.165000166893 L -35.4500000477 0.735000166893 " stroke="#191919" stroke-width="0.35 px" style="stroke-width:0.35;stroke-miterlimit:4;stroke-dasharray:none;fill:none;fill-rule: evenodd "/>
<path id="Shape_nwe0141"  d="M -35.4500000477 0.735000166893 A 0.2 0.2 0 0 1 -35.65 0.935" stroke="#191919" stroke-width="0.35 px" style="stroke-width:0.35;stroke-miterlimit:4;stroke-dasharray:none;fill:none;fill-rule: evenodd "/>
<path id="Shape_nwe0142"  d="M -36.1500000477 0.935000166893 L -35.6500000477 0.935000166893 " stroke="#191919" stroke-width="0.35 px" style="stroke-width:0.35;stroke-miterlimit:4;stroke-dasharray:none;fill:none;fill-rule: evenodd "/>
<path id="Shape_nwe0143"  d="M -36.1500000477 0.935000166893 L -36.2700000477 1.05500016689 " stroke="#191919" stroke-width="0.35 px" style="stroke-width:0.35;stroke-miterlimit:4;stroke-dasharray:none;fill:none;fill-rule: evenodd "/>
<path id="Shape_nwe0144"  d="M -38.0000000477 1.05500016689 L -36.2700000477 1.05500016689 " stroke="#191919" stroke-width="0.35 px" style="stroke-width:0.35;stroke-miterlimit:4;stroke-dasharray:none;fill:none;fill-rule: evenodd "/>
<path id="Shape_nwe0145"  d="M -38.0000000477 1.34500016689 L -36.2700000477 1.34500016689 " stroke="#191919" stroke-width="0.35 px" style="stroke-width:0.35;stroke-miterlimit:4;stroke-dasharray:none;fill:none;fill-rule: evenodd "/>
<path id="Shape_nwe0146"  d="M -36.2700000477 1.34500016689 L -36.1500000477 1.46500016689 " stroke="#191919" stroke-width="0.35 px" style="stroke-width:0.35;stroke-miterlimit:4;stroke-dasharray:none;fill:none;fill-rule: evenodd "/>
<path id="Shape_nwe0147"  d="M -36.1500000477 1.46500016689 L -35.6500000477 1.46500016689 " stroke="#191919" stroke-width="0.35 px" style="stroke-width:0.35;stroke-miterlimit:4;stroke-dasharray:none;fill:none;fill-rule: evenodd "/>
<path id="Shape_nwe0148"  d="M -35.6500000477 1.46500016689 A 0.2 0.2 0 0 1 -35.45 1.665" stroke="#191919" stroke-width="0.35 px" style="stroke-width:0.35;stroke-miterlimit:4;stroke-dasharray:none;fill:none;fill-rule: evenodd "/>
<path id="Shape_nwe0149"  d="M -35.4500000477 1.66500016689 L -35.4500000477 2.23500016689 " stroke="#191919" stroke-width="0.35 px" style="stroke-width:0.35;stroke-miterlimit:4;stroke-dasharray:none;fill:none;fill-rule: evenodd "/>
<path id="Shape_nwe0150"  d="M -35.4500000477 2.23500016689 A 0.2 0.2 0 0 1 -35.65 2.435" stroke="#191919" stroke-width="0.35 px" style="stroke-width:0.35;stroke-miterlimit:4;stroke-dasharray:none;fill:none;fill-rule: evenodd "/>
<path id="Shape_nwe0151"  d="M -36.1500000477 2.43500016689 L -35.6500000477 2.43500016689 " stroke="#191919" stroke-width="0.35 px" style="stroke-width:0.35;stroke-miterlimit:4;stroke-dasharray:none;fill:none;fill-rule: evenodd "/>
<path id="Shape_nwe0152"  d="M -36.1500000477 2.43500016689 L -36.2700000477 2.55500016689 " stroke="#191919" stroke-width="0.35 px" style="stroke-width:0.35;stroke-miterlimit:4;stroke-dasharray:none;fill:none;fill-rule: evenodd "/>
<path id="Shape_nwe0153"  d="M -38.0000000477 2.55500016689 L -36.2700000477 2.55500016689 " stroke="#191919" stroke-width="0.35 px" style="stroke-width:0.35;stroke-miterlimit:4;stroke-dasharray:none;fill:none;fill-rule: evenodd "/>
<path id="Shape_nwe0154"  d="M -38.0000000477 2.84500016689 L -36.2700000477 2.84500016689 " stroke="#191919" stroke-width="0.35 px" style="stroke-width:0.35;stroke-miterlimit:4;stroke-dasharray:none;fill:none;fill-rule: evenodd "/>
<path id="Shape_nwe0155"  d="M -36.2700000477 2.84500016689 L -36.1500000477 2.96500016689 " stroke="#191919" stroke-width="0.35 px" style="stroke-width:0.35;stroke-miterlimit:4;stroke-dasharray:none;fill:none;fill-rule: evenodd "/>
<path id="Shape_nwe0156"  d="M -36.1500000477 2.96500016689 L -35.6500000477 2.96500016689 " stroke="#191919" stroke-width="0.35 px" style="stroke-width:0.35;stroke-miterlimit:4;stroke-dasharray:none;fill:none;fill-rule: evenodd "/>
<path id="Shape_nwe0157"  d="M -35.6500000477 2.96500016689 A 0.2 0.2 0 0 1 -35.45 3.165" stroke="#191919" stroke-width="0.35 px" style="stroke-width:0.35;stroke-miterlimit:4;stroke-dasharray:none;fill:none;fill-rule: evenodd "/>
<path id="Shape_nwe0158"  d="M -35.4500000477 3.16500016689 L -35.4500000477 3.73500016689 " stroke="#191919" stroke-width="0.35 px" style="stroke-width:0.35;stroke-miterlimit:4;stroke-dasharray:none;fill:none;fill-rule: evenodd "/>
<path id="Shape_nwe0159"  d="M -35.4500000477 3.73500016689 A 0.2 0.2 0 0 1 -35.65 3.935" stroke="#191919" stroke-width="0.35 px" style="stroke-width:0.35;stroke-miterlimit:4;stroke-dasharray:none;fill:none;fill-rule: evenodd "/>
<path id="Shape_nwe0160"  d="M -36.1500000477 3.93500016689 L -35.6500000477 3.93500016689 " stroke="#191919" stroke-width="0.35 px" style="stroke-width:0.35;stroke-miterlimit:4;stroke-dasharray:none;fill:none;fill-rule: evenodd "/>
<path id="Shape_nwe0161"  d="M -36.1500000477 3.93500016689 L -36.2700000477 4.05500016689 " stroke="#191919" stroke-width="0.35 px" style="stroke-width:0.35;stroke-miterlimit:4;stroke-dasharray:none;fill:none;fill-rule: evenodd "/>
<path id="Shape_nwe0162"  d="M -38.0000000477 4.05500016689 L -36.2700000477 4.05500016689 " stroke="#191919" stroke-width="0.35 px" style="stroke-width:0.35;stroke-miterlimit:4;stroke-dasharray:none;fill:none;fill-rule: evenodd "/>
<path id="Shape_nwe0163"  d="M -38.0000000477 4.34500016689 L -36.2700000477 4.34500016689 " stroke="#191919" stroke-width="0.35 px" style="stroke-width:0.35;stroke-miterlimit:4;stroke-dasharray:none;fill:none;fill-rule: evenodd "/>
<path id="Shape_nwe0164"  d="M -36.2700000477 4.34500016689 L -36.1500000477 4.46500016689 " stroke="#191919" stroke-width="0.35 px" style="stroke-width:0.35;stroke-miterlimit:4;stroke-dasharray:none;fill:none;fill-rule: evenodd "/>
<path id="Shape_nwe0165"  d="M -36.1500000477 4.46500016689 L -35.6500000477 4.46500016689 " stroke="#191919" stroke-width="0.35 px" style="stroke-width:0.35;stroke-miterlimit:4;stroke-dasharray:none;fill:none;fill-rule: evenodd "/>
<path id="Shape_nwe0166"  d="M -35.6500000477 4.46500016689 A 0.2 0.2 0 0 1 -35.45 4.665" stroke="#191919" stroke-width="0.35 px" style="stroke-width:0.35;stroke-miterlimit:4;stroke-dasharray:none;fill:none;fill-rule: evenodd "/>
<path id="Shape_nwe0167"  d="M -34.4500000477 -2.04999983311 L -34.4500000477 -1.54999983311 " stroke="#191919" stroke-width="0.35 px" style="stroke-width:0.35;stroke-miterlimit:4;stroke-dasharray:none;fill:none;fill-rule: evenodd "/>
<path id="Shape_nwe0168"  d="M -35.2500000477 -2.04999983311 L -35.2500000477 -1.54999983311 " stroke="#191919" stroke-width="0.35 px" style="stroke-width:0.35;stroke-miterlimit:4;stroke-dasharray:none;fill:none;fill-rule: evenodd "/>
<path id="Shape_nwe0169"  d="M -34.4500000477 2.45000016689 L -34.4500000477 2.95000016689 " stroke="#191919" stroke-width="0.35 px" style="stroke-width:0.35;stroke-miterlimit:4;stroke-dasharray:none;fill:none;fill-rule: evenodd "/>
<path id="Shape_nwe0170"  d="M -35.2500000477 2.45000016689 L -35.2500000477 2.95000016689 " stroke="#191919" stroke-width="0.35 px" style="stroke-width:0.35;stroke-miterlimit:4;stroke-dasharray:none;fill:none;fill-rule: evenodd "/>
<path id="Shape_nwe0171"  d="M -33.9000000477 5.67500016689 L -34.9500000477 5.67500016689 " stroke="#191919" stroke-width="0.35 px" style="stroke-width:0.35;stroke-miterlimit:4;stroke-dasharray:none;fill:none;fill-rule: evenodd "/>
<path id="Shape_nwe0172"  d="M -33.9000000477 5.67500016689 L -33.8500000477 5.67500016689 " stroke="#191919" stroke-width="0.35 px" style="stroke-width:0.35;stroke-miterlimit:4;stroke-dasharray:none;fill:none;fill-rule: evenodd "/>
<path id="Shape_nwe0173"  d="M -33.8250000477 6.05000016689 L -33.8500000477 6.07500016689 " stroke="#191919" stroke-width="0.35 px" style="stroke-width:0.35;stroke-miterlimit:4;stroke-dasharray:none;fill:none;fill-rule: evenodd "/>
<path id="Shape_nwe0174"  d="M -33.9000000477 5.97500016689 L -33.8250000477 6.05000016689 " stroke="#191919" stroke-width="0.35 px" style="stroke-width:0.35;stroke-miterlimit:4;stroke-dasharray:none;fill:none;fill-rule: evenodd "/>
<path id="Shape_nwe0175"  d="M -34.8500000477 5.97500016689 L -33.9000000477 5.97500016689 " stroke="#191919" stroke-width="0.35 px" style="stroke-width:0.35;stroke-miterlimit:4;stroke-dasharray:none;fill:none;fill-rule: evenodd "/>
<path id="Shape_nwe0176"  d="M -33.7500000477 5.97500016689 L -33.8250000477 6.05000016689 " stroke="#191919" stroke-width="0.35 px" style="stroke-width:0.35;stroke-miterlimit:4;stroke-dasharray:none;fill:none;fill-rule: evenodd "/>
<path id="Shape_nwe0177"  d="M -33.9000000477 5.97500016689 L -33.9000000477 5.67500016689 " stroke="#191919" stroke-width="0.35 px" style="stroke-width:0.35;stroke-miterlimit:4;stroke-dasharray:none;fill:none;fill-rule: evenodd "/>
<path id="Shape_nwe0178"  d="M -33.8250000477 -5.14999983311 L -33.7500000477 -5.07499983311 " stroke="#191919" stroke-width="0.35 px" style="stroke-width:0.35;stroke-miterlimit:4;stroke-dasharray:none;fill:none;fill-rule: evenodd "/>
<path id="Shape_nwe0179"  d="M -33.9000000477 -5.07499983311 L -33.8250000477 -5.14999983311 " stroke="#191919" stroke-width="0.35 px" style="stroke-width:0.35;stroke-miterlimit:4;stroke-dasharray:none;fill:none;fill-rule: evenodd "/>
<path id="Shape_nwe0180"  d="M -33.9000000477 -4.77499983311 L -33.9000000477 -5.07499983311 " stroke="#191919" stroke-width="0.35 px" style="stroke-width:0.35;stroke-miterlimit:4;stroke-dasharray:none;fill:none;fill-rule: evenodd "/>
<path id="Shape_nwe0181"  d="M -33.8500000477 -4.77499983311 L -33.9000000477 -4.77499983311 " stroke="#191919" stroke-width="0.35 px" style="stroke-width:0.35;stroke-miterlimit:4;stroke-dasharray:none;fill:none;fill-rule: evenodd "/>
<path id="Shape_nwe0182"  d="M -34.9500000477 -4.77499983311 L -33.9000000477 -4.77499983311 " stroke="#191919" stroke-width="0.35 px" style="stroke-width:0.35;stroke-miterlimit:4;stroke-dasharray:none;fill:none;fill-rule: evenodd "/>
<path id="Shape_nwe0183"  d="M -33.9000000477 -5.07499983311 L -34.8500000477 -5.07499983311 " stroke="#191919" stroke-width="0.35 px" style="stroke-width:0.35;stroke-miterlimit:4;stroke-dasharray:none;fill:none;fill-rule: evenodd "/>
<path id="Shape_nwe0184"  d="M -33.8500000477 -5.17499983311 L -33.8250000477 -5.14999983311 " stroke="#191919" stroke-width="0.35 px" style="stroke-width:0.35;stroke-miterlimit:4;stroke-dasharray:none;fill:none;fill-rule: evenodd "/>
<path id="Shape_nwe0185"  d="M -35.2500000477 -2.04999983311 L -35.0000000477 -2.04999983311 " stroke="#191919" stroke-width="0.35 px" style="stroke-width:0.35;stroke-miterlimit:4;stroke-dasharray:none;fill:none;fill-rule: evenodd "/>
<path id="Shape_nwe0186"  d="M -35.0000000477 -2.04999983311 L -34.7000000477 -2.04999983311 " stroke="#191919" stroke-width="0.35 px" style="stroke-width:0.35;stroke-miterlimit:4;stroke-dasharray:none;fill:none;fill-rule: evenodd "/>
<path id="Shape_nwe0187"  d="M -34.7000000477 -2.04999983311 L -34.4500000477 -2.04999983311 " stroke="#191919" stroke-width="0.35 px" style="stroke-width:0.35;stroke-miterlimit:4;stroke-dasharray:none;fill:none;fill-rule: evenodd "/>
<path id="Shape_nwe0188"  d="M -35.2500000477 -1.54999983311 L -35.0000000477 -1.54999983311 " stroke="#191919" stroke-width="0.35 px" style="stroke-width:0.35;stroke-miterlimit:4;stroke-dasharray:none;fill:none;fill-rule: evenodd "/>
<path id="Shape_nwe0189"  d="M -35.0000000477 -2.04999983311 L -35.0000000477 -1.54999983311 " stroke="#191919" stroke-width="0.35 px" style="stroke-width:0.35;stroke-miterlimit:4;stroke-dasharray:none;fill:none;fill-rule: evenodd "/>
<path id="Shape_nwe0190"  d="M -34.7000000477 -1.54999983311 L -34.4500000477 -1.54999983311 " stroke="#191919" stroke-width="0.35 px" style="stroke-width:0.35;stroke-miterlimit:4;stroke-dasharray:none;fill:none;fill-rule: evenodd "/>
<path id="Shape_nwe0191"  d="M -35.0000000477 -1.54999983311 L -34.7000000477 -1.54999983311 " stroke="#191919" stroke-width="0.35 px" style="stroke-width:0.35;stroke-miterlimit:4;stroke-dasharray:none;fill:none;fill-rule: evenodd "/>
<path id="Shape_nwe0192"  d="M -34.7000000477 -2.04999983311 L -34.7000000477 -1.54999983311 " stroke="#191919" stroke-width="0.35 px" style="stroke-width:0.35;stroke-miterlimit:4;stroke-dasharray:none;fill:none;fill-rule: evenodd "/>
<path id="Shape_nwe0193"  d="M -35.2500000477 2.45000016689 L -35.0000000477 2.45000016689 " stroke="#191919" stroke-width="0.35 px" style="stroke-width:0.35;stroke-miterlimit:4;stroke-dasharray:none;fill:none;fill-rule: evenodd "/>
<path id="Shape_nwe0194"  d="M -35.0000000477 2.45000016689 L -34.7000000477 2.45000016689 " stroke="#191919" stroke-width="0.35 px" style="stroke-width:0.35;stroke-miterlimit:4;stroke-dasharray:none;fill:none;fill-rule: evenodd "/>
<path id="Shape_nwe0195"  d="M -34.7000000477 2.45000016689 L -34.4500000477 2.45000016689 " stroke="#191919" stroke-width="0.35 px" style="stroke-width:0.35;stroke-miterlimit:4;stroke-dasharray:none;fill:none;fill-rule: evenodd "/>
<path id="Shape_nwe0196"  d="M -35.2500000477 2.95000016689 L -35.0000000477 2.95000016689 " stroke="#191919" stroke-width="0.35 px" style="stroke-width:0.35;stroke-miterlimit:4;stroke-dasharray:none;fill:none;fill-rule: evenodd "/>
<path id="Shape_nwe0197"  d="M -35.0000000477 2.45000016689 L -35.0000000477 2.95000016689 " stroke="#191919" stroke-width="0.35 px" style="stroke-width:0.35;stroke-miterlimit:4;stroke-dasharray:none;fill:none;fill-rule: evenodd "/>
<path id="Shape_nwe0198"  d="M -34.7000000477 2.95000016689 L -34.4500000477 2.95000016689 " stroke="#191919" stroke-width="0.35 px" style="stroke-width:0.35;stroke-miterlimit:4;stroke-dasharray:none;fill:none;fill-rule: evenodd "/>
<path id="Shape_nwe0199"  d="M -35.0000000477 2.95000016689 L -34.7000000477 2.95000016689 " stroke="#191919" stroke-width="0.35 px" style="stroke-width:0.35;stroke-miterlimit:4;stroke-dasharray:none;fill:none;fill-rule: evenodd "/>
<path id="Shape_nwe0200"  d="M -34.7000000477 2.45000016689 L -34.7000000477 2.95000016689 " stroke="#191919" stroke-width="0.35 px" style="stroke-width:0.35;stroke-miterlimit:4;stroke-dasharray:none;fill:none;fill-rule: evenodd "/>
<path id="Shape_nwe0201"  d="M -40.0500000477 5.92500016689 L -40.0500000477 -5.02499983311 " stroke="#191919" stroke-width="0.35 px" style="stroke-width:0.35;stroke-miterlimit:4;stroke-dasharray:none;fill:none;fill-rule: evenodd "/>
<path id="Shape_nwe0202"  d="M -38.2500000477 6.56627923666 L -38.2500000477 7.08941327812 " stroke="#191919" stroke-width="0.35 px" style="stroke-width:0.35;stroke-miterlimit:4;stroke-dasharray:none;fill:none;fill-rule: evenodd "/>
<path id="Shape_nwe0203"  d="M -38.2500000477 -6.18941294434 L -38.2500000477 -5.66627890288 " stroke="#191919" stroke-width="0.35 px" style="stroke-width:0.35;stroke-miterlimit:4;stroke-dasharray:none;fill:none;fill-rule: evenodd "/>
<path id="Shape_nwe0204"  d="M -38.5000000477 -5.77499983311 L -38.5000000477 -6.67499983311 " stroke="#191919" stroke-width="0.35 px" style="stroke-width:0.35;stroke-miterlimit:4;stroke-dasharray:none;fill:none;fill-rule: evenodd "/>
<path id="Shape_nwe0205"  d="M -38.5000000477 -6.67499983311 L -39.1000000477 -6.67499983311 " stroke="#191919" stroke-width="0.35 px" style="stroke-width:0.35;stroke-miterlimit:4;stroke-dasharray:none;fill:none;fill-rule: evenodd "/>
<path id="Shape_nwe0206"  d="M -39.1000000477 -6.67499983311 L -39.100000048 -6.47499983311 " stroke="#191919" stroke-width="0.35 px" style="stroke-width:0.35;stroke-miterlimit:4;stroke-dasharray:none;fill:none;fill-rule: evenodd "/>
<path id="Shape_nwe0207"  d="M -39.2000000477 -6.47499983311 L -39.1000000477 -6.47499983311 " stroke="#191919" stroke-width="0.35 px" style="stroke-width:0.35;stroke-miterlimit:4;stroke-dasharray:none;fill:none;fill-rule: evenodd "/>
<path id="Shape_nwe0208"  d="M -39.4000000477 -6.27499983311 L -39.4000000477 -6.17499983323 " stroke="#191919" stroke-width="0.35 px" style="stroke-width:0.35;stroke-miterlimit:4;stroke-dasharray:none;fill:none;fill-rule: evenodd "/>
<path id="Shape_nwe0209"  d="M -39.4300000477 -5.77499983311 L -38.5000000477 -5.77499983311 " stroke="#191919" stroke-width="0.35 px" style="stroke-width:0.35;stroke-miterlimit:4;stroke-dasharray:none;fill:none;fill-rule: evenodd "/>
<path id="Shape_nwe0210"  d="M -39.4300000477 -5.77499983311 L -39.4300000477 -6.17499983311 " stroke="#191919" stroke-width="0.35 px" style="stroke-width:0.35;stroke-miterlimit:4;stroke-dasharray:none;fill:none;fill-rule: evenodd "/>
<path id="Shape_nwe0211"  d="M -39.4300000477 7.07500016689 L -39.4300000477 6.67500016689 " stroke="#191919" stroke-width="0.35 px" style="stroke-width:0.35;stroke-miterlimit:4;stroke-dasharray:none;fill:none;fill-rule: evenodd "/>
<path id="Shape_nwe0212"  d="M -39.4000000478 7.07500016704 L -39.4300000477 7.07500016689 " stroke="#191919" stroke-width="0.35 px" style="stroke-width:0.35;stroke-miterlimit:4;stroke-dasharray:none;fill:none;fill-rule: evenodd "/>
<path id="Shape_nwe0213"  d="M -39.4000000477 7.07500016689 A 0.3 0.3 0 0 1 -39.1 7.375" stroke="#191919" stroke-width="0.35 px" style="stroke-width:0.35;stroke-miterlimit:4;stroke-dasharray:none;fill:none;fill-rule: evenodd "/>
<path id="Shape_nwe0214"  d="M -39.1000000477 7.57500016689 L -39.1000000478 7.37500016689 " stroke="#191919" stroke-width="0.35 px" style="stroke-width:0.35;stroke-miterlimit:4;stroke-dasharray:none;fill:none;fill-rule: evenodd "/>
<path id="Shape_nwe0215"  d="M -38.5000000477 7.57500016689 L -39.1000000477 7.57500016689 " stroke="#191919" stroke-width="0.35 px" style="stroke-width:0.35;stroke-miterlimit:4;stroke-dasharray:none;fill:none;fill-rule: evenodd "/>
<path id="Shape_nwe0216"  d="M -38.5000000477 6.67500016689 L -38.5000000477 7.57500016689 " stroke="#191919" stroke-width="0.35 px" style="stroke-width:0.35;stroke-miterlimit:4;stroke-dasharray:none;fill:none;fill-rule: evenodd "/>
<path id="Shape_nwe0217"  d="M -38.5000000477 6.67500016689 L -39.4300000477 6.67500016689 " stroke="#191919" stroke-width="0.35 px" style="stroke-width:0.35;stroke-miterlimit:4;stroke-dasharray:none;fill:none;fill-rule: evenodd "/>
<path id="Shape_nwe0218"  d="M -39.4000000477 7.07500016689 L -39.4000000477 7.17500016689 " stroke="#191919" stroke-width="0.35 px" style="stroke-width:0.35;stroke-miterlimit:4;stroke-dasharray:none;fill:none;fill-rule: evenodd "/>
<title>Shape002</title>
</g>
<g id="Line" transform="translate(40.688622,10.398672) scale(1,-1)">
<path id="Line_w0000"  d="M -33.7500007153 3.5646623373 L 6.24999928473 3.5646623373 " stroke="#000000" stroke-width="0.35 px" style="stroke-width:0.35;stroke-miterlimit:4;stroke-dasharray:none;fill:none;fill-rule: evenodd "/>
<title>Line004</title>
</g>
<g id="Line004" transform="translate(40.688622,10.398672) scale(1,-1)">
<path id="Line004_w0000"  d="M -33.7403991223 1.97343754768 L 6.25960087775 1.97343754768 " stroke="#000000" stroke-width="0.35 px" style="stroke-width:0.35;stroke-miterlimit:4;stroke-dasharray:none;fill:none;fill-rule: evenodd "/>
<title>Line005</title>
</g>
<g id="Line005" transform="translate(40.688622,10.398672) scale(1,-1)">
<path id="Line005_w0000"  d="M -33.7500007153 5.02431714534 L 6.24999928473 5.02431714534 " stroke="#000000" stroke-width="0.35 px" style="stroke-width:0.35;stroke-miterlimit:4;stroke-dasharray:none;fill:none;fill-rule: evenodd "/>
<title>Line006</title>
</g>
<g id="Line006" transform="translate(40.688622,10.398672) scale(1,-1)">
<path id="Line006_w0000"  d="M -33.7403991223 0.495461851353 L 6.25960087775 0.495461851353 " stroke="#000000" stroke-width="0.35 px" style="stroke-width:0.35;stroke-miterlimit:4;stroke-dasharray:none;fill:none;fill-rule: evenodd "/>
<title>Line007</title>
</g>
<g id="Line007" transform="translate(40.688622,10.398672) scale(1,-1)">
<path id="Line007_w0000"  d="M -33.8364913464 -1.08237776161 L 6.16350865363 -1.08237776161 " stroke="#000000" stroke-width="0.35 px" style="stroke-width:0.35;stroke-miterlimit:4;stroke-dasharray:none;fill:none;fill-rule: evenodd "/>
<title>Line008</title>
</g>
<g id="Line008" transform="translate(40.688622,10.398672) scale(1,-1)">
<path id="Line008_w0000"  d="M -33.7364928723 -2.56035348774 L 6.26350712775 -2.56035348774 " stroke="#000000" stroke-width="0.35 px" style="stroke-width:0.35;stroke-miterlimit:4;stroke-dasharray:none;fill:none;fill-rule: evenodd "/>
<title>Line009</title>
</g>
<g id="Line009" transform="translate(40.688622,10.398672) scale(1,-1)">
<path id="Line009_w0000"  d="M -33.7364928723 -4.123924464 L 6.26350712775 -4.123924464 " stroke="#000000" stroke-width="0.35 px" style="stroke-width:0.35;stroke-miterlimit:4;stroke-dasharray:none;fill:none;fill-rule: evenodd "/>
<title>Line010</title>
</g>
<g id="Shape001" transform="translate(40.688622,10.398672) scale(1,-1)">
<path id="Shape001_nwe0000"  d="M 10.16218853 8.56005025304 L 10.16218853 7.16005025304 " stroke="#191919" stroke-width="0.35 px" style="stroke-width:0.35;stroke-miterlimit:4;stroke-dasharray:none;fill:none;fill-rule: evenodd "/>
<path id="Shape001_nwe0001"  d="M 9.66218853 6.56005025304 L 9.96218853 6.66005025304 " stroke="#191919" stroke-width="0.35 px" style="stroke-width:0.35;stroke-miterlimit:4;stroke-dasharray:none;fill:none;fill-rule: evenodd "/>
<path id="Shape001_nwe0002"  d="M 9.66218853 7.16005025304 L 9.96218853 7.06005025304 " stroke="#191919" stroke-width="0.35 px" style="stroke-width:0.35;stroke-miterlimit:4;stroke-dasharray:none;fill:none;fill-rule: evenodd "/>
<path id="Shape001_nwe0003"  d="M 11.91218853 7.16005025304 L 10.16218853 7.16005025304 " stroke="#191919" stroke-width="0.35 px" style="stroke-width:0.35;stroke-miterlimit:4;stroke-dasharray:none;fill:none;fill-rule: evenodd "/>
<path id="Shape001_nwe0004"  d="M 9.06218853 7.16005025304 L 9.66218853 7.16005025304 " stroke="#191919" stroke-width="0.35 px" style="stroke-width:0.35;stroke-miterlimit:4;stroke-dasharray:none;fill:none;fill-rule: evenodd "/>
<path id="Shape001_nwe0005"  d="M 9.96218853 7.06005025304 L 10.66218853 7.06005025304 " stroke="#191919" stroke-width="0.35 px" style="stroke-width:0.35;stroke-miterlimit:4;stroke-dasharray:none;fill:none;fill-rule: evenodd "/>
<path id="Shape001_nwe0006"  d="M 11.46218853 7.06005025304 L 10.66218853 7.06005025304 " stroke="#191919" stroke-width="0.35 px" style="stroke-width:0.35;stroke-miterlimit:4;stroke-dasharray:none;fill:none;fill-rule: evenodd "/>
<path id="Shape001_nwe0007"  d="M 11.91218853 7.06005025304 L 11.46218853 7.06005025304 " stroke="#191919" stroke-width="0.35 px" style="stroke-width:0.35;stroke-miterlimit:4;stroke-dasharray:none;fill:none;fill-rule: evenodd "/>
<path id="Shape001_nwe0008"  d="M 11.91218853 7.16005025304 L 11.91218853 6.56005025304 " stroke="#191919" stroke-width="0.35 px" style="stroke-width:0.35;stroke-miterlimit:4;stroke-dasharray:none;fill:none;fill-rule: evenodd "/>
<path id="Shape001_nwe0009"  d="M 11.46218853 7.06005025304 L 11.46218853 6.66005025304 " stroke="#191919" stroke-width="0.35 px" style="stroke-width:0.35;stroke-miterlimit:4;stroke-dasharray:none;fill:none;fill-rule: evenodd "/>
<path id="Shape001_nwe0010"  d="M 11.46218853 6.66005025304 L 11.91218853 6.66005025304 " stroke="#191919" stroke-width="0.35 px" style="stroke-width:0.35;stroke-miterlimit:4;stroke-dasharray:none;fill:none;fill-rule: evenodd "/>
<path id="Shape001_nwe0011"  d="M 11.91218853 4.66005025304 L 11.46218853 4.66005025304 " stroke="#191919" stroke-width="0.35 px" style="stroke-width:0.35;stroke-miterlimit:4;stroke-dasharray:none;fill:none;fill-rule: evenodd "/>
<path id="Shape001_nwe0012"  d="M 11.46218853 4.66005025304 L 10.66218853 4.66005025304 " stroke="#191919" stroke-width="0.35 px" style="stroke-width:0.35;stroke-miterlimit:4;stroke-dasharray:none;fill:none;fill-rule: evenodd "/>
<path id="Shape001_nwe0013"  d="M 9.96218853 4.66005025304 L 10.66218853 4.66005025304 " stroke="#191919" stroke-width="0.35 px" style="stroke-width:0.35;stroke-miterlimit:4;stroke-dasharray:none;fill:none;fill-rule: evenodd "/>
<path id="Shape001_nwe0014"  d="M 9.06218853 9.11005025304 L 6.41218853 9.11005025304 " stroke="#191919" stroke-width="0.35 px" style="stroke-width:0.35;stroke-miterlimit:4;stroke-dasharray:none;fill:none;fill-rule: evenodd "/>
<path id="Shape001_nwe0015"  d="M 10.66218853 9.11005025304 L 9.06218853 9.11005025304 " stroke="#191919" stroke-width="0.35 px" style="stroke-width:0.35;stroke-miterlimit:4;stroke-dasharray:none;fill:none;fill-rule: evenodd "/>
<path id="Shape001_nwe0016"  d="M 10.66218853 9.11005025304 L 11.46218853 9.11005025304 " stroke="#191919" stroke-width="0.35 px" style="stroke-width:0.35;stroke-miterlimit:4;stroke-dasharray:none;fill:none;fill-rule: evenodd "/>
<path id="Shape001_nwe0017"  d="M 11.46218853 9.11005025304 L 11.91218853 9.11005025304 " stroke="#191919" stroke-width="0.35 px" style="stroke-width:0.35;stroke-miterlimit:4;stroke-dasharray:none;fill:none;fill-rule: evenodd "/>
<path id="Shape001_nwe0018"  d="M 8.31218853 9.86005025304 L 11.91218853 9.86005025304 " stroke="#191919" stroke-width="0.35 px" style="stroke-width:0.35;stroke-miterlimit:4;stroke-dasharray:none;fill:none;fill-rule: evenodd "/>
<path id="Shape001_nwe0019"  d="M 8.31218853 9.86005025304 L 7.91218853 9.86005025304 " stroke="#191919" stroke-width="0.35 px" style="stroke-width:0.35;stroke-miterlimit:4;stroke-dasharray:none;fill:none;fill-rule: evenodd "/>
<path id="Shape001_nwe0020"  d="M 9.06218853 6.56005025304 L 9.66218853 6.56005025304 " stroke="#191919" stroke-width="0.35 px" style="stroke-width:0.35;stroke-miterlimit:4;stroke-dasharray:none;fill:none;fill-rule: evenodd "/>
<path id="Shape001_nwe0021"  d="M 9.96218853 6.66005025304 L 10.66218853 6.66005025304 " stroke="#191919" stroke-width="0.35 px" style="stroke-width:0.35;stroke-miterlimit:4;stroke-dasharray:none;fill:none;fill-rule: evenodd "/>
<path id="Shape001_nwe0022"  d="M 10.16218853 6.56005025304 L 10.16218853 5.16005025304 " stroke="#191919" stroke-width="0.35 px" style="stroke-width:0.35;stroke-miterlimit:4;stroke-dasharray:none;fill:none;fill-rule: evenodd "/>
<path id="Shape001_nwe0023"  d="M 11.91218853 6.56005025304 L 10.16218853 6.56005025304 " stroke="#191919" stroke-width="0.35 px" style="stroke-width:0.35;stroke-miterlimit:4;stroke-dasharray:none;fill:none;fill-rule: evenodd "/>
<path id="Shape001_nwe0024"  d="M 11.91218853 5.16005025304 L 10.16218853 5.16005025304 " stroke="#191919" stroke-width="0.35 px" style="stroke-width:0.35;stroke-miterlimit:4;stroke-dasharray:none;fill:none;fill-rule: evenodd "/>
<path id="Shape001_nwe0025"  d="M 11.46218853 4.66005025304 L 11.46218853 5.06005025304 " stroke="#191919" stroke-width="0.35 px" style="stroke-width:0.35;stroke-miterlimit:4;stroke-dasharray:none;fill:none;fill-rule: evenodd "/>
<path id="Shape001_nwe0026"  d="M 10.66218853 5.06005025304 L 11.46218853 5.06005025304 " stroke="#191919" stroke-width="0.35 px" style="stroke-width:0.35;stroke-miterlimit:4;stroke-dasharray:none;fill:none;fill-rule: evenodd "/>
<path id="Shape001_nwe0027"  d="M 10.66218853 5.06005025304 L 10.66218853 4.66005025304 " stroke="#191919" stroke-width="0.35 px" style="stroke-width:0.35;stroke-miterlimit:4;stroke-dasharray:none;fill:none;fill-rule: evenodd "/>
<path id="Shape001_nwe0028"  d="M 9.96218853 5.06005025304 L 10.66218853 5.06005025304 " stroke="#191919" stroke-width="0.35 px" style="stroke-width:0.35;stroke-miterlimit:4;stroke-dasharray:none;fill:none;fill-rule: evenodd "/>
<path id="Shape001_nwe0029"  d="M 11.46218853 5.06005025304 L 11.91218853 5.06005025304 " stroke="#191919" stroke-width="0.35 px" style="stroke-width:0.35;stroke-miterlimit:4;stroke-dasharray:none;fill:none;fill-rule: evenodd "/>
<path id="Shape001_nwe0030"  d="M 11.91218853 4.56005025304 L 11.91218853 5.16005025304 " stroke="#191919" stroke-width="0.35 px" style="stroke-width:0.35;stroke-miterlimit:4;stroke-dasharray:none;fill:none;fill-rule: evenodd "/>
<path id="Shape001_nwe0031"  d="M 9.06218853 5.16005025304 L 9.66218853 5.16005025304 " stroke="#191919" stroke-width="0.35 px" style="stroke-width:0.35;stroke-miterlimit:4;stroke-dasharray:none;fill:none;fill-rule: evenodd "/>
<path id="Shape001_nwe0032"  d="M 9.66218853 5.16005025304 L 9.96218853 5.06005025304 " stroke="#191919" stroke-width="0.35 px" style="stroke-width:0.35;stroke-miterlimit:4;stroke-dasharray:none;fill:none;fill-rule: evenodd "/>
<path id="Shape001_nwe0033"  d="M 11.46218853 9.11005025304 L 11.46218853 8.66005025304 " stroke="#191919" stroke-width="0.35 px" style="stroke-width:0.35;stroke-miterlimit:4;stroke-dasharray:none;fill:none;fill-rule: evenodd "/>
<path id="Shape001_nwe0034"  d="M 11.46218853 8.66005025304 L 11.91218853 8.66005025304 " stroke="#191919" stroke-width="0.35 px" style="stroke-width:0.35;stroke-miterlimit:4;stroke-dasharray:none;fill:none;fill-rule: evenodd "/>
<path id="Shape001_nwe0035"  d="M 10.66218853 6.66005025304 L 11.46218853 6.66005025304 " stroke="#191919" stroke-width="0.35 px" style="stroke-width:0.35;stroke-miterlimit:4;stroke-dasharray:none;fill:none;fill-rule: evenodd "/>
<path id="Shape001_nwe0036"  d="M 11.91218853 4.56005025304 L 10.16218853 4.56005025304 " stroke="#191919" stroke-width="0.35 px" style="stroke-width:0.35;stroke-miterlimit:4;stroke-dasharray:none;fill:none;fill-rule: evenodd "/>
<path id="Shape001_nwe0037"  d="M 13.71218853 9.86005025304 L 11.91218853 9.86005025304 " stroke="#191919" stroke-width="0.35 px" style="stroke-width:0.35;stroke-miterlimit:4;stroke-dasharray:none;fill:none;fill-rule: evenodd "/>
<path id="Shape001_nwe0038"  d="M 11.91218853 -5.43994974696 L 10.16218853 -5.43994974696 " stroke="#191919" stroke-width="0.35 px" style="stroke-width:0.35;stroke-miterlimit:4;stroke-dasharray:none;fill:none;fill-rule: evenodd "/>
<path id="Shape001_nwe0039"  d="M 11.46218853 -1.33994974696 L 11.91218853 -1.33994974696 " stroke="#191919" stroke-width="0.35 px" style="stroke-width:0.35;stroke-miterlimit:4;stroke-dasharray:none;fill:none;fill-rule: evenodd "/>
<path id="Shape001_nwe0040"  d="M 10.66218853 -1.33994974696 L 11.46218853 -1.33994974696 " stroke="#191919" stroke-width="0.35 px" style="stroke-width:0.35;stroke-miterlimit:4;stroke-dasharray:none;fill:none;fill-rule: evenodd "/>
<path id="Shape001_nwe0041"  d="M 9.96218853 -1.33994974696 L 10.66218853 -1.33994974696 " stroke="#191919" stroke-width="0.35 px" style="stroke-width:0.35;stroke-miterlimit:4;stroke-dasharray:none;fill:none;fill-rule: evenodd "/>
<path id="Shape001_nwe0042"  d="M 11.46218853 -0.93994974696 L 11.46218853 -1.33994974696 " stroke="#191919" stroke-width="0.35 px" style="stroke-width:0.35;stroke-miterlimit:4;stroke-dasharray:none;fill:none;fill-rule: evenodd "/>
<path id="Shape001_nwe0043"  d="M 11.91218853 -0.93994974696 L 11.46218853 -0.93994974696 " stroke="#191919" stroke-width="0.35 px" style="stroke-width:0.35;stroke-miterlimit:4;stroke-dasharray:none;fill:none;fill-rule: evenodd "/>
<path id="Shape001_nwe0044"  d="M 11.46218853 -5.33994974696 L 11.91218853 -5.33994974696 " stroke="#191919" stroke-width="0.35 px" style="stroke-width:0.35;stroke-miterlimit:4;stroke-dasharray:none;fill:none;fill-rule: evenodd "/>
<path id="Shape001_nwe0045"  d="M 10.66218853 -5.33994974696 L 11.46218853 -5.33994974696 " stroke="#191919" stroke-width="0.35 px" style="stroke-width:0.35;stroke-miterlimit:4;stroke-dasharray:none;fill:none;fill-rule: evenodd "/>
<path id="Shape001_nwe0046"  d="M 9.96218853 -5.33994974696 L 10.66218853 -5.33994974696 " stroke="#191919" stroke-width="0.35 px" style="stroke-width:0.35;stroke-miterlimit:4;stroke-dasharray:none;fill:none;fill-rule: evenodd "/>
<path id="Shape001_nwe0047"  d="M 11.46218853 -4.93994974696 L 11.46218853 -5.33994974696 " stroke="#191919" stroke-width="0.35 px" style="stroke-width:0.35;stroke-miterlimit:4;stroke-dasharray:none;fill:none;fill-rule: evenodd "/>
<path id="Shape001_nwe0048"  d="M 11.91218853 -4.93994974696 L 11.46218853 -4.93994974696 " stroke="#191919" stroke-width="0.35 px" style="stroke-width:0.35;stroke-miterlimit:4;stroke-dasharray:none;fill:none;fill-rule: evenodd "/>
<path id="Shape001_nwe0049"  d="M 9.66218853 -4.83994974696 L 9.96218853 -4.93994974696 " stroke="#191919" stroke-width="0.35 px" style="stroke-width:0.35;stroke-miterlimit:4;stroke-dasharray:none;fill:none;fill-rule: evenodd "/>
<path id="Shape001_nwe0050"  d="M 9.66218853 -3.43994974696 L 9.96218853 -3.33994974696 " stroke="#191919" stroke-width="0.35 px" style="stroke-width:0.35;stroke-miterlimit:4;stroke-dasharray:none;fill:none;fill-rule: evenodd "/>
<path id="Shape001_nwe0051"  d="M 9.06218853 -4.83994974696 L 9.66218853 -4.83994974696 " stroke="#191919" stroke-width="0.35 px" style="stroke-width:0.35;stroke-miterlimit:4;stroke-dasharray:none;fill:none;fill-rule: evenodd "/>
<path id="Shape001_nwe0052"  d="M 9.66218853 -5.43994974696 L 9.96218853 -5.33994974696 " stroke="#191919" stroke-width="0.35 px" style="stroke-width:0.35;stroke-miterlimit:4;stroke-dasharray:none;fill:none;fill-rule: evenodd "/>
<path id="Shape001_nwe0053"  d="M 6.41218853 -9.38994974696 L 6.41218853 9.11005025304 " stroke="#191919" stroke-width="0.35 px" style="stroke-width:0.35;stroke-miterlimit:4;stroke-dasharray:none;fill:none;fill-rule: evenodd "/>
<path id="Shape001_nwe0054"  d="M 9.66218853 -6.83994974696 L 9.96218853 -6.93994974696 " stroke="#191919" stroke-width="0.35 px" style="stroke-width:0.35;stroke-miterlimit:4;stroke-dasharray:none;fill:none;fill-rule: evenodd "/>
<path id="Shape001_nwe0055"  d="M 10.66218853 -9.38994974696 L 9.06218853 -9.38994974696 " stroke="#191919" stroke-width="0.35 px" style="stroke-width:0.35;stroke-miterlimit:4;stroke-dasharray:none;fill:none;fill-rule: evenodd "/>
<path id="Shape001_nwe0056"  d="M 10.66218853 -8.93994974696 L 10.66218853 -9.38994974696 " stroke="#191919" stroke-width="0.35 px" style="stroke-width:0.35;stroke-miterlimit:4;stroke-dasharray:none;fill:none;fill-rule: evenodd "/>
<path id="Shape001_nwe0057"  d="M 9.96218853 -8.93994974696 L 10.66218853 -8.93994974696 " stroke="#191919" stroke-width="0.35 px" style="stroke-width:0.35;stroke-miterlimit:4;stroke-dasharray:none;fill:none;fill-rule: evenodd "/>
<path id="Shape001_nwe0058"  d="M 9.66218853 -8.83994974696 L 9.96218853 -8.93994974696 " stroke="#191919" stroke-width="0.35 px" style="stroke-width:0.35;stroke-miterlimit:4;stroke-dasharray:none;fill:none;fill-rule: evenodd "/>
<path id="Shape001_nwe0059"  d="M 9.06218853 -8.83994974696 L 9.66218853 -8.83994974696 " stroke="#191919" stroke-width="0.35 px" style="stroke-width:0.35;stroke-miterlimit:4;stroke-dasharray:none;fill:none;fill-rule: evenodd "/>
<path id="Shape001_nwe0060"  d="M 10.66218853 -8.93994974696 L 11.46218853 -8.93994974696 " stroke="#191919" stroke-width="0.35 px" style="stroke-width:0.35;stroke-miterlimit:4;stroke-dasharray:none;fill:none;fill-rule: evenodd "/>
<path id="Shape001_nwe0061"  d="M 11.46218853 -8.93994974696 L 11.91218853 -8.93994974696 " stroke="#191919" stroke-width="0.35 px" style="stroke-width:0.35;stroke-miterlimit:4;stroke-dasharray:none;fill:none;fill-rule: evenodd "/>
<path id="Shape001_nwe0062"  d="M 9.96218853 -6.93994974696 L 10.66218853 -6.93994974696 " stroke="#191919" stroke-width="0.35 px" style="stroke-width:0.35;stroke-miterlimit:4;stroke-dasharray:none;fill:none;fill-rule: evenodd "/>
<path id="Shape001_nwe0063"  d="M 9.06218853 -6.83994974696 L 9.66218853 -6.83994974696 " stroke="#191919" stroke-width="0.35 px" style="stroke-width:0.35;stroke-miterlimit:4;stroke-dasharray:none;fill:none;fill-rule: evenodd "/>
<path id="Shape001_nwe0064"  d="M 9.06218853 -7.43994974696 L 9.66218853 -7.43994974696 " stroke="#191919" stroke-width="0.35 px" style="stroke-width:0.35;stroke-miterlimit:4;stroke-dasharray:none;fill:none;fill-rule: evenodd "/>
<path id="Shape001_nwe0065"  d="M 9.66218853 -7.43994974696 L 9.96218853 -7.33994974696 " stroke="#191919" stroke-width="0.35 px" style="stroke-width:0.35;stroke-miterlimit:4;stroke-dasharray:none;fill:none;fill-rule: evenodd "/>
<path id="Shape001_nwe0066"  d="M 9.96218853 -7.33994974696 L 10.66218853 -7.33994974696 " stroke="#191919" stroke-width="0.35 px" style="stroke-width:0.35;stroke-miterlimit:4;stroke-dasharray:none;fill:none;fill-rule: evenodd "/>
<path id="Shape001_nwe0067"  d="M 10.66218853 -6.93994974696 L 10.66218853 -7.33994974696 " stroke="#191919" stroke-width="0.35 px" style="stroke-width:0.35;stroke-miterlimit:4;stroke-dasharray:none;fill:none;fill-rule: evenodd "/>
<path id="Shape001_nwe0068"  d="M 11.46218853 -9.38994974696 L 11.91218853 -9.38994974696 " stroke="#191919" stroke-width="0.35 px" style="stroke-width:0.35;stroke-miterlimit:4;stroke-dasharray:none;fill:none;fill-rule: evenodd "/>
<path id="Shape001_nwe0069"  d="M 10.66218853 -9.38994974696 L 11.46218853 -9.38994974696 " stroke="#191919" stroke-width="0.35 px" style="stroke-width:0.35;stroke-miterlimit:4;stroke-dasharray:none;fill:none;fill-rule: evenodd "/>
<path id="Shape001_nwe0070"  d="M 9.06218853 -9.38994974696 L 6.41218853 -9.38994974696 " stroke="#191919" stroke-width="0.35 px" style="stroke-width:0.35;stroke-miterlimit:4;stroke-dasharray:none;fill:none;fill-rule: evenodd "/>
<path id="Shape001_nwe0071"  d="M 10.16218853 -5.43994974696 L 10.16218853 -6.83994974696 " stroke="#191919" stroke-width="0.35 px" style="stroke-width:0.35;stroke-miterlimit:4;stroke-dasharray:none;fill:none;fill-rule: evenodd "/>
<path id="Shape001_nwe0072"  d="M 11.91218853 -7.43994974696 L 10.16218853 -7.43994974696 " stroke="#191919" stroke-width="0.35 px" style="stroke-width:0.35;stroke-miterlimit:4;stroke-dasharray:none;fill:none;fill-rule: evenodd "/>
<path id="Shape001_nwe0073"  d="M 11.91218853 -7.43994974696 L 11.91218853 -6.83994974696 " stroke="#191919" stroke-width="0.35 px" style="stroke-width:0.35;stroke-miterlimit:4;stroke-dasharray:none;fill:none;fill-rule: evenodd "/>
<path id="Shape001_nwe0074"  d="M 11.91218853 -6.83994974696 L 10.16218853 -6.83994974696 " stroke="#191919" stroke-width="0.35 px" style="stroke-width:0.35;stroke-miterlimit:4;stroke-dasharray:none;fill:none;fill-rule: evenodd "/>
<path id="Shape001_nwe0075"  d="M 10.16218853 -8.83994974696 L 10.16218853 -7.43994974696 " stroke="#191919" stroke-width="0.35 px" style="stroke-width:0.35;stroke-miterlimit:4;stroke-dasharray:none;fill:none;fill-rule: evenodd "/>
<path id="Shape001_nwe0076"  d="M 11.91218853 -8.83994974696 L 10.16218853 -8.83994974696 " stroke="#191919" stroke-width="0.35 px" style="stroke-width:0.35;stroke-miterlimit:4;stroke-dasharray:none;fill:none;fill-rule: evenodd "/>
<path id="Shape001_nwe0077"  d="M 11.91218853 -8.83994974696 L 11.91218853 -10.139949747 " stroke="#191919" stroke-width="0.35 px" style="stroke-width:0.35;stroke-miterlimit:4;stroke-dasharray:none;fill:none;fill-rule: evenodd "/>
<path id="Shape001_nwe0078"  d="M 13.71218853 -10.139949747 L 11.91218853 -10.139949747 " stroke="#191919" stroke-width="0.35 px" style="stroke-width:0.35;stroke-miterlimit:4;stroke-dasharray:none;fill:none;fill-rule: evenodd "/>
<path id="Shape001_nwe0079"  d="M 13.71218853 -10.139949747 L 13.71218853 9.86005025304 " stroke="#191919" stroke-width="0.35 px" style="stroke-width:0.35;stroke-miterlimit:4;stroke-dasharray:none;fill:none;fill-rule: evenodd "/>
<path id="Shape001_nwe0080"  d="M 11.91218853 8.56005025304 L 11.91218853 9.86005025304 " stroke="#191919" stroke-width="0.35 px" style="stroke-width:0.35;stroke-miterlimit:4;stroke-dasharray:none;fill:none;fill-rule: evenodd "/>
<path id="Shape001_nwe0081"  d="M 11.91218853 8.56005025304 L 10.16218853 8.56005025304 " stroke="#191919" stroke-width="0.35 px" style="stroke-width:0.35;stroke-miterlimit:4;stroke-dasharray:none;fill:none;fill-rule: evenodd "/>
<path id="Shape001_nwe0082"  d="M 10.16218853 4.56005025304 L 10.16218853 3.16005025304 " stroke="#191919" stroke-width="0.35 px" style="stroke-width:0.35;stroke-miterlimit:4;stroke-dasharray:none;fill:none;fill-rule: evenodd "/>
<path id="Shape001_nwe0083"  d="M 11.91218853 3.16005025304 L 10.16218853 3.16005025304 " stroke="#191919" stroke-width="0.35 px" style="stroke-width:0.35;stroke-miterlimit:4;stroke-dasharray:none;fill:none;fill-rule: evenodd "/>
<path id="Shape001_nwe0084"  d="M 11.91218853 3.16005025304 L 11.91218853 2.56005025304 " stroke="#191919" stroke-width="0.35 px" style="stroke-width:0.35;stroke-miterlimit:4;stroke-dasharray:none;fill:none;fill-rule: evenodd "/>
<path id="Shape001_nwe0085"  d="M 11.91218853 2.56005025304 L 10.16218853 2.56005025304 " stroke="#191919" stroke-width="0.35 px" style="stroke-width:0.35;stroke-miterlimit:4;stroke-dasharray:none;fill:none;fill-rule: evenodd "/>
<path id="Shape001_nwe0086"  d="M 10.16218853 1.16005025304 L 10.16218853 2.56005025304 " stroke="#191919" stroke-width="0.35 px" style="stroke-width:0.35;stroke-miterlimit:4;stroke-dasharray:none;fill:none;fill-rule: evenodd "/>
<path id="Shape001_nwe0087"  d="M 11.91218853 1.16005025304 L 10.16218853 1.16005025304 " stroke="#191919" stroke-width="0.35 px" style="stroke-width:0.35;stroke-miterlimit:4;stroke-dasharray:none;fill:none;fill-rule: evenodd "/>
<path id="Shape001_nwe0088"  d="M 11.91218853 0.56005025304 L 11.91218853 1.16005025304 " stroke="#191919" stroke-width="0.35 px" style="stroke-width:0.35;stroke-miterlimit:4;stroke-dasharray:none;fill:none;fill-rule: evenodd "/>
<path id="Shape001_nwe0089"  d="M 11.91218853 0.56005025304 L 10.16218853 0.56005025304 " stroke="#191919" stroke-width="0.35 px" style="stroke-width:0.35;stroke-miterlimit:4;stroke-dasharray:none;fill:none;fill-rule: evenodd "/>
<path id="Shape001_nwe0090"  d="M 10.16218853 -0.83994974696 L 10.16218853 0.56005025304 " stroke="#191919" stroke-width="0.35 px" style="stroke-width:0.35;stroke-miterlimit:4;stroke-dasharray:none;fill:none;fill-rule: evenodd "/>
<path id="Shape001_nwe0091"  d="M 11.91218853 -0.83994974696 L 10.16218853 -0.83994974696 " stroke="#191919" stroke-width="0.35 px" style="stroke-width:0.35;stroke-miterlimit:4;stroke-dasharray:none;fill:none;fill-rule: evenodd "/>
<path id="Shape001_nwe0092"  d="M 11.91218853 -0.83994974696 L 11.91218853 -1.43994974696 " stroke="#191919" stroke-width="0.35 px" style="stroke-width:0.35;stroke-miterlimit:4;stroke-dasharray:none;fill:none;fill-rule: evenodd "/>
<path id="Shape001_nwe0093"  d="M 11.91218853 -1.43994974696 L 10.16218853 -1.43994974696 " stroke="#191919" stroke-width="0.35 px" style="stroke-width:0.35;stroke-miterlimit:4;stroke-dasharray:none;fill:none;fill-rule: evenodd "/>
<path id="Shape001_nwe0094"  d="M 10.16218853 -2.83994974696 L 10.16218853 -1.43994974696 " stroke="#191919" stroke-width="0.35 px" style="stroke-width:0.35;stroke-miterlimit:4;stroke-dasharray:none;fill:none;fill-rule: evenodd "/>
<path id="Shape001_nwe0095"  d="M 11.91218853 -2.83994974696 L 10.16218853 -2.83994974696 " stroke="#191919" stroke-width="0.35 px" style="stroke-width:0.35;stroke-miterlimit:4;stroke-dasharray:none;fill:none;fill-rule: evenodd "/>
<path id="Shape001_nwe0096"  d="M 11.91218853 -3.43994974696 L 11.91218853 -2.83994974696 " stroke="#191919" stroke-width="0.35 px" style="stroke-width:0.35;stroke-miterlimit:4;stroke-dasharray:none;fill:none;fill-rule: evenodd "/>
<path id="Shape001_nwe0097"  d="M 11.91218853 -3.43994974696 L 10.16218853 -3.43994974696 " stroke="#191919" stroke-width="0.35 px" style="stroke-width:0.35;stroke-miterlimit:4;stroke-dasharray:none;fill:none;fill-rule: evenodd "/>
<path id="Shape001_nwe0098"  d="M 10.16218853 -4.83994974696 L 10.16218853 -3.43994974696 " stroke="#191919" stroke-width="0.35 px" style="stroke-width:0.35;stroke-miterlimit:4;stroke-dasharray:none;fill:none;fill-rule: evenodd "/>
<path id="Shape001_nwe0099"  d="M 11.91218853 -4.83994974696 L 10.16218853 -4.83994974696 " stroke="#191919" stroke-width="0.35 px" style="stroke-width:0.35;stroke-miterlimit:4;stroke-dasharray:none;fill:none;fill-rule: evenodd "/>
<path id="Shape001_nwe0100"  d="M 11.91218853 -4.83994974696 L 11.91218853 -5.43994974696 " stroke="#191919" stroke-width="0.35 px" style="stroke-width:0.35;stroke-miterlimit:4;stroke-dasharray:none;fill:none;fill-rule: evenodd "/>
<path id="Shape001_nwe0101"  d="M 10.66218853 -6.93994974696 L 11.46218853 -6.93994974696 " stroke="#191919" stroke-width="0.35 px" style="stroke-width:0.35;stroke-miterlimit:4;stroke-dasharray:none;fill:none;fill-rule: evenodd "/>
<path id="Shape001_nwe0102"  d="M 11.46218853 -6.93994974696 L 11.91218853 -6.93994974696 " stroke="#191919" stroke-width="0.35 px" style="stroke-width:0.35;stroke-miterlimit:4;stroke-dasharray:none;fill:none;fill-rule: evenodd "/>
<path id="Shape001_nwe0103"  d="M 8.31218853 -10.139949747 L 7.91218853 -10.139949747 " stroke="#191919" stroke-width="0.35 px" style="stroke-width:0.35;stroke-miterlimit:4;stroke-dasharray:none;fill:none;fill-rule: evenodd "/>
<path id="Shape001_nwe0104"  d="M 11.46218853 -9.38994974696 L 11.46218853 -8.93994974696 " stroke="#191919" stroke-width="0.35 px" style="stroke-width:0.35;stroke-miterlimit:4;stroke-dasharray:none;fill:none;fill-rule: evenodd "/>
<path id="Shape001_nwe0105"  d="M 9.06218853 8.56005025304 L 9.66218853 8.56005025304 " stroke="#191919" stroke-width="0.35 px" style="stroke-width:0.35;stroke-miterlimit:4;stroke-dasharray:none;fill:none;fill-rule: evenodd "/>
<path id="Shape001_nwe0106"  d="M 9.66218853 8.56005025304 L 9.96218853 8.66005025304 " stroke="#191919" stroke-width="0.35 px" style="stroke-width:0.35;stroke-miterlimit:4;stroke-dasharray:none;fill:none;fill-rule: evenodd "/>
<path id="Shape001_nwe0107"  d="M 9.96218853 8.66005025304 L 10.66218853 8.66005025304 " stroke="#191919" stroke-width="0.35 px" style="stroke-width:0.35;stroke-miterlimit:4;stroke-dasharray:none;fill:none;fill-rule: evenodd "/>
<path id="Shape001_nwe0108"  d="M 10.66218853 8.66005025304 L 10.66218853 9.11005025304 " stroke="#191919" stroke-width="0.35 px" style="stroke-width:0.35;stroke-miterlimit:4;stroke-dasharray:none;fill:none;fill-rule: evenodd "/>
<path id="Shape001_nwe0109"  d="M 9.66218853 4.56005025304 L 9.96218853 4.66005025304 " stroke="#191919" stroke-width="0.35 px" style="stroke-width:0.35;stroke-miterlimit:4;stroke-dasharray:none;fill:none;fill-rule: evenodd "/>
<path id="Shape001_nwe0110"  d="M 11.46218853 2.66005025304 L 11.91218853 2.66005025304 " stroke="#191919" stroke-width="0.35 px" style="stroke-width:0.35;stroke-miterlimit:4;stroke-dasharray:none;fill:none;fill-rule: evenodd "/>
<path id="Shape001_nwe0111"  d="M 10.66218853 2.66005025304 L 11.46218853 2.66005025304 " stroke="#191919" stroke-width="0.35 px" style="stroke-width:0.35;stroke-miterlimit:4;stroke-dasharray:none;fill:none;fill-rule: evenodd "/>
<path id="Shape001_nwe0112"  d="M 9.96218853 2.66005025304 L 10.66218853 2.66005025304 " stroke="#191919" stroke-width="0.35 px" style="stroke-width:0.35;stroke-miterlimit:4;stroke-dasharray:none;fill:none;fill-rule: evenodd "/>
<path id="Shape001_nwe0113"  d="M 10.66218853 8.66005025304 L 11.46218853 8.66005025304 " stroke="#191919" stroke-width="0.35 px" style="stroke-width:0.35;stroke-miterlimit:4;stroke-dasharray:none;fill:none;fill-rule: evenodd "/>
<path id="Shape001_nwe0114"  d="M 11.91218853 0.66005025304 L 11.46218853 0.66005025304 " stroke="#191919" stroke-width="0.35 px" style="stroke-width:0.35;stroke-miterlimit:4;stroke-dasharray:none;fill:none;fill-rule: evenodd "/>
<path id="Shape001_nwe0115"  d="M 11.46218853 0.66005025304 L 10.66218853 0.66005025304 " stroke="#191919" stroke-width="0.35 px" style="stroke-width:0.35;stroke-miterlimit:4;stroke-dasharray:none;fill:none;fill-rule: evenodd "/>
<path id="Shape001_nwe0116"  d="M 9.96218853 0.66005025304 L 10.66218853 0.66005025304 " stroke="#191919" stroke-width="0.35 px" style="stroke-width:0.35;stroke-miterlimit:4;stroke-dasharray:none;fill:none;fill-rule: evenodd "/>
<path id="Shape001_nwe0117"  d="M 9.06218853 4.56005025304 L 9.66218853 4.56005025304 " stroke="#191919" stroke-width="0.35 px" style="stroke-width:0.35;stroke-miterlimit:4;stroke-dasharray:none;fill:none;fill-rule: evenodd "/>
<path id="Shape001_nwe0118"  d="M 9.66218853 3.16005025304 L 9.96218853 3.06005025304 " stroke="#191919" stroke-width="0.35 px" style="stroke-width:0.35;stroke-miterlimit:4;stroke-dasharray:none;fill:none;fill-rule: evenodd "/>
<path id="Shape001_nwe0119"  d="M 9.96218853 3.06005025304 L 10.66218853 3.06005025304 " stroke="#191919" stroke-width="0.35 px" style="stroke-width:0.35;stroke-miterlimit:4;stroke-dasharray:none;fill:none;fill-rule: evenodd "/>
<path id="Shape001_nwe0120"  d="M 11.46218853 3.06005025304 L 10.66218853 3.06005025304 " stroke="#191919" stroke-width="0.35 px" style="stroke-width:0.35;stroke-miterlimit:4;stroke-dasharray:none;fill:none;fill-rule: evenodd "/>
<path id="Shape001_nwe0121"  d="M 11.91218853 3.06005025304 L 11.46218853 3.06005025304 " stroke="#191919" stroke-width="0.35 px" style="stroke-width:0.35;stroke-miterlimit:4;stroke-dasharray:none;fill:none;fill-rule: evenodd "/>
<path id="Shape001_nwe0122"  d="M 9.06218853 2.56005025304 L 9.66218853 2.56005025304 " stroke="#191919" stroke-width="0.35 px" style="stroke-width:0.35;stroke-miterlimit:4;stroke-dasharray:none;fill:none;fill-rule: evenodd "/>
<path id="Shape001_nwe0123"  d="M 10.66218853 -1.33994974696 L 10.66218853 -0.93994974696 " stroke="#191919" stroke-width="0.35 px" style="stroke-width:0.35;stroke-miterlimit:4;stroke-dasharray:none;fill:none;fill-rule: evenodd "/>
<path id="Shape001_nwe0124"  d="M 11.46218853 -0.93994974696 L 10.66218853 -0.93994974696 " stroke="#191919" stroke-width="0.35 px" style="stroke-width:0.35;stroke-miterlimit:4;stroke-dasharray:none;fill:none;fill-rule: evenodd "/>
<path id="Shape001_nwe0125"  d="M 9.06218853 3.16005025304 L 9.66218853 3.16005025304 " stroke="#191919" stroke-width="0.35 px" style="stroke-width:0.35;stroke-miterlimit:4;stroke-dasharray:none;fill:none;fill-rule: evenodd "/>
<path id="Shape001_nwe0126"  d="M 9.96218853 -0.93994974696 L 10.66218853 -0.93994974696 " stroke="#191919" stroke-width="0.35 px" style="stroke-width:0.35;stroke-miterlimit:4;stroke-dasharray:none;fill:none;fill-rule: evenodd "/>
<path id="Shape001_nwe0127"  d="M 9.66218853 2.56005025304 L 9.96218853 2.66005025304 " stroke="#191919" stroke-width="0.35 px" style="stroke-width:0.35;stroke-miterlimit:4;stroke-dasharray:none;fill:none;fill-rule: evenodd "/>
<path id="Shape001_nwe0128"  d="M 10.66218853 2.66005025304 L 10.66218853 3.06005025304 " stroke="#191919" stroke-width="0.35 px" style="stroke-width:0.35;stroke-miterlimit:4;stroke-dasharray:none;fill:none;fill-rule: evenodd "/>
<path id="Shape001_nwe0129"  d="M 11.46218853 3.06005025304 L 11.46218853 2.66005025304 " stroke="#191919" stroke-width="0.35 px" style="stroke-width:0.35;stroke-miterlimit:4;stroke-dasharray:none;fill:none;fill-rule: evenodd "/>
<path id="Shape001_nwe0130"  d="M 9.66218853 1.16005025304 L 9.96218853 1.06005025304 " stroke="#191919" stroke-width="0.35 px" style="stroke-width:0.35;stroke-miterlimit:4;stroke-dasharray:none;fill:none;fill-rule: evenodd "/>
<path id="Shape001_nwe0131"  d="M 9.66218853 -0.83994974696 L 9.96218853 -0.93994974696 " stroke="#191919" stroke-width="0.35 px" style="stroke-width:0.35;stroke-miterlimit:4;stroke-dasharray:none;fill:none;fill-rule: evenodd "/>
<path id="Shape001_nwe0132"  d="M 9.06218853 -0.83994974696 L 9.66218853 -0.83994974696 " stroke="#191919" stroke-width="0.35 px" style="stroke-width:0.35;stroke-miterlimit:4;stroke-dasharray:none;fill:none;fill-rule: evenodd "/>
<path id="Shape001_nwe0133"  d="M 9.06218853 -1.43994974696 L 9.66218853 -1.43994974696 " stroke="#191919" stroke-width="0.35 px" style="stroke-width:0.35;stroke-miterlimit:4;stroke-dasharray:none;fill:none;fill-rule: evenodd "/>
<path id="Shape001_nwe0134"  d="M 9.66218853 -1.43994974696 L 9.96218853 -1.33994974696 " stroke="#191919" stroke-width="0.35 px" style="stroke-width:0.35;stroke-miterlimit:4;stroke-dasharray:none;fill:none;fill-rule: evenodd "/>
<path id="Shape001_nwe0135"  d="M 9.66218853 0.56005025304 L 9.96218853 0.66005025304 " stroke="#191919" stroke-width="0.35 px" style="stroke-width:0.35;stroke-miterlimit:4;stroke-dasharray:none;fill:none;fill-rule: evenodd "/>
<path id="Shape001_nwe0136"  d="M 11.46218853 0.66005025304 L 11.46218853 1.06005025304 " stroke="#191919" stroke-width="0.35 px" style="stroke-width:0.35;stroke-miterlimit:4;stroke-dasharray:none;fill:none;fill-rule: evenodd "/>
<path id="Shape001_nwe0137"  d="M 10.66218853 1.06005025304 L 11.46218853 1.06005025304 " stroke="#191919" stroke-width="0.35 px" style="stroke-width:0.35;stroke-miterlimit:4;stroke-dasharray:none;fill:none;fill-rule: evenodd "/>
<path id="Shape001_nwe0138"  d="M 10.66218853 1.06005025304 L 10.66218853 0.66005025304 " stroke="#191919" stroke-width="0.35 px" style="stroke-width:0.35;stroke-miterlimit:4;stroke-dasharray:none;fill:none;fill-rule: evenodd "/>
<path id="Shape001_nwe0139"  d="M 9.96218853 1.06005025304 L 10.66218853 1.06005025304 " stroke="#191919" stroke-width="0.35 px" style="stroke-width:0.35;stroke-miterlimit:4;stroke-dasharray:none;fill:none;fill-rule: evenodd "/>
<path id="Shape001_nwe0140"  d="M 9.06218853 1.16005025304 L 9.66218853 1.16005025304 " stroke="#191919" stroke-width="0.35 px" style="stroke-width:0.35;stroke-miterlimit:4;stroke-dasharray:none;fill:none;fill-rule: evenodd "/>
<path id="Shape001_nwe0141"  d="M 9.06218853 0.56005025304 L 9.66218853 0.56005025304 " stroke="#191919" stroke-width="0.35 px" style="stroke-width:0.35;stroke-miterlimit:4;stroke-dasharray:none;fill:none;fill-rule: evenodd "/>
<path id="Shape001_nwe0142"  d="M 11.46218853 1.06005025304 L 11.91218853 1.06005025304 " stroke="#191919" stroke-width="0.35 px" style="stroke-width:0.35;stroke-miterlimit:4;stroke-dasharray:none;fill:none;fill-rule: evenodd "/>
<path id="Shape001_nwe0143"  d="M 9.96218853 -2.93994974696 L 10.66218853 -2.93994974696 " stroke="#191919" stroke-width="0.35 px" style="stroke-width:0.35;stroke-miterlimit:4;stroke-dasharray:none;fill:none;fill-rule: evenodd "/>
<path id="Shape001_nwe0144"  d="M 10.66218853 -2.93994974696 L 11.46218853 -2.93994974696 " stroke="#191919" stroke-width="0.35 px" style="stroke-width:0.35;stroke-miterlimit:4;stroke-dasharray:none;fill:none;fill-rule: evenodd "/>
<path id="Shape001_nwe0145"  d="M 11.46218853 -2.93994974696 L 11.91218853 -2.93994974696 " stroke="#191919" stroke-width="0.35 px" style="stroke-width:0.35;stroke-miterlimit:4;stroke-dasharray:none;fill:none;fill-rule: evenodd "/>
<path id="Shape001_nwe0146"  d="M 9.06218853 -5.43994974696 L 9.66218853 -5.43994974696 " stroke="#191919" stroke-width="0.35 px" style="stroke-width:0.35;stroke-miterlimit:4;stroke-dasharray:none;fill:none;fill-rule: evenodd "/>
<path id="Shape001_nwe0147"  d="M 9.66218853 -2.83994974696 L 9.96218853 -2.93994974696 " stroke="#191919" stroke-width="0.35 px" style="stroke-width:0.35;stroke-miterlimit:4;stroke-dasharray:none;fill:none;fill-rule: evenodd "/>
<path id="Shape001_nwe0148"  d="M 9.06218853 -3.43994974696 L 9.66218853 -3.43994974696 " stroke="#191919" stroke-width="0.35 px" style="stroke-width:0.35;stroke-miterlimit:4;stroke-dasharray:none;fill:none;fill-rule: evenodd "/>
<path id="Shape001_nwe0149"  d="M 9.06218853 -2.83994974696 L 9.66218853 -2.83994974696 " stroke="#191919" stroke-width="0.35 px" style="stroke-width:0.35;stroke-miterlimit:4;stroke-dasharray:none;fill:none;fill-rule: evenodd "/>
<path id="Shape001_nwe0150"  d="M 10.66218853 -2.93994974696 L 10.66218853 -3.33994974696 " stroke="#191919" stroke-width="0.35 px" style="stroke-width:0.35;stroke-miterlimit:4;stroke-dasharray:none;fill:none;fill-rule: evenodd "/>
<path id="Shape001_nwe0151"  d="M 9.96218853 -3.33994974696 L 10.66218853 -3.33994974696 " stroke="#191919" stroke-width="0.35 px" style="stroke-width:0.35;stroke-miterlimit:4;stroke-dasharray:none;fill:none;fill-rule: evenodd "/>
<path id="Shape001_nwe0152"  d="M 9.96218853 -4.93994974696 L 10.66218853 -4.93994974696 " stroke="#191919" stroke-width="0.35 px" style="stroke-width:0.35;stroke-miterlimit:4;stroke-dasharray:none;fill:none;fill-rule: evenodd "/>
<path id="Shape001_nwe0153"  d="M 10.66218853 -5.33994974696 L 10.66218853 -4.93994974696 " stroke="#191919" stroke-width="0.35 px" style="stroke-width:0.35;stroke-miterlimit:4;stroke-dasharray:none;fill:none;fill-rule: evenodd "/>
<path id="Shape001_nwe0154"  d="M 9.06218853 -9.38994974696 L 9.06218853 9.11005025304 " stroke="#191919" stroke-width="0.35 px" style="stroke-width:0.35;stroke-miterlimit:4;stroke-dasharray:none;fill:none;fill-rule: evenodd "/>
<path id="Shape001_nwe0155"  d="M 11.46218853 -4.93994974696 L 10.66218853 -4.93994974696 " stroke="#191919" stroke-width="0.35 px" style="stroke-width:0.35;stroke-miterlimit:4;stroke-dasharray:none;fill:none;fill-rule: evenodd "/>
<path id="Shape001_nwe0156"  d="M 11.91218853 -3.33994974696 L 11.46218853 -3.33994974696 " stroke="#191919" stroke-width="0.35 px" style="stroke-width:0.35;stroke-miterlimit:4;stroke-dasharray:none;fill:none;fill-rule: evenodd "/>
<path id="Shape001_nwe0157"  d="M 11.46218853 -3.33994974696 L 10.66218853 -3.33994974696 " stroke="#191919" stroke-width="0.35 px" style="stroke-width:0.35;stroke-miterlimit:4;stroke-dasharray:none;fill:none;fill-rule: evenodd "/>
<path id="Shape001_nwe0158"  d="M 11.46218853 -3.33994974696 L 11.46218853 -2.93994974696 " stroke="#191919" stroke-width="0.35 px" style="stroke-width:0.35;stroke-miterlimit:4;stroke-dasharray:none;fill:none;fill-rule: evenodd "/>
<path id="Shape001_nwe0159"  d="M 11.46218853 -7.33994974696 L 11.46218853 -6.93994974696 " stroke="#191919" stroke-width="0.35 px" style="stroke-width:0.35;stroke-miterlimit:4;stroke-dasharray:none;fill:none;fill-rule: evenodd "/>
<path id="Shape001_nwe0160"  d="M 11.46218853 -7.33994974696 L 10.66218853 -7.33994974696 " stroke="#191919" stroke-width="0.35 px" style="stroke-width:0.35;stroke-miterlimit:4;stroke-dasharray:none;fill:none;fill-rule: evenodd "/>
<path id="Shape001_nwe0161"  d="M 11.91218853 -7.33994974696 L 11.46218853 -7.33994974696 " stroke="#191919" stroke-width="0.35 px" style="stroke-width:0.35;stroke-miterlimit:4;stroke-dasharray:none;fill:none;fill-rule: evenodd "/>
<path id="Shape001_nwe0162"  d="M 8.31218853 9.11005025304 L 8.31218853 9.86005025304 " stroke="#191919" stroke-width="0.35 px" style="stroke-width:0.35;stroke-miterlimit:4;stroke-dasharray:none;fill:none;fill-rule: evenodd "/>
<path id="Shape001_nwe0163"  d="M 8.31218853 -9.38994974696 L 8.31218853 -10.139949747 " stroke="#191919" stroke-width="0.35 px" style="stroke-width:0.35;stroke-miterlimit:4;stroke-dasharray:none;fill:none;fill-rule: evenodd "/>
<path id="Shape001_nwe0164"  d="M 7.91218853 9.11005025304 L 7.91218853 9.86005025304 " stroke="#191919" stroke-width="0.35 px" style="stroke-width:0.35;stroke-miterlimit:4;stroke-dasharray:none;fill:none;fill-rule: evenodd "/>
<path id="Shape001_nwe0165"  d="M 7.91218853 -9.38994974696 L 7.91218853 -10.139949747 " stroke="#191919" stroke-width="0.35 px" style="stroke-width:0.35;stroke-miterlimit:4;stroke-dasharray:none;fill:none;fill-rule: evenodd "/>
<title>Shape001</title>
</g>
</svg>